 
  Database(P): T2CCL
  IP Address: 130.246.88.181
 
NUM  PV Name                                                       Address  Type        Scan        DESC                                    
  1  SV2101:STA                                                    19501    longin      1 second    SV2101 status                           
  2  SV2102:STA                                                    19502    longin      1 second    SV2102 status                           
  3  SV2103:STA                                                    19503    longin      1 second    SV2103 status                           
  4  SV2104:STA                                                    19504    longin      1 second    SV2104 status                           
  5  SV2105:STA                                                    19505    longin      1 second    SV2105 status                           
  6  SV2107:STA                                                    19506    longin      1 second    SV2107 status                           
  7  SV2118:STA                                                    19507    longin      1 second    SV2118 status                           
  8  SV2119:STA                                                    19508    longin      1 second    SV2119 status                           
  9  SV2120:STA                                                    19509    longin      1 second    SV2120 status                           
 10  SV2121:STA                                                    19510    longin      1 second    SV2121 status                           
 11  SV2122:STA                                                    19511    longin      1 second    SV2122 status                           
 12  SV2123:STA                                                    19512    longin      1 second    SV2123 status                           
 13  SV2124:STA                                                    19513    longin      1 second    SV2124 status                           
 14  SV2125:STA                                                    19514    longin      1 second    SV2125 status                           
 15  SV2127:STA                                                    19515    longin      1 second    SV2127 status                           
 16  SV2128:STA                                                    19516    longin      1 second    SV2128 status                           
 17  TCV2106:STA                                                   19517    longin      1 second    TCV2106 status                          
 18  SV2129:STA                                                    19518    longin      1 second    SV2129 status                           
 19  SV2130:STA                                                    19519    longin      1 second    SV2130 status                           
 20  SV2131:STA                                                    19520    longin      1 second    SV21316 status                          
 21  TCSSPARE1:STA                                                 19521    longin      1 second    TCSSPARE1 status                        
 22  TCSSPARE2:STA                                                 19522    longin      1 second    TCSSPARE2 status                        
 23  TCSSPARE3:STA                                                 19523    longin      1 second    TCSSPARE3 status                        
 24  TCSSPARE4:STA                                                 19524    longin      1 second    TCSSPARE4 status                        
 25  TCSSPARE5:STA                                                 19525    longin      1 second    TCSSPARE5 status                        
 26  TCSSPARE6:STA                                                 19526    longin      1 second    TCSSPARE6 status                        
 27  TCSSPARE7:STA                                                 19527    longin      1 second    TCSSPARE7 status                        
 28  TCSSPARE8:STA                                                 19528    longin      1 second    TCSSPARE8 status                        
 29  TCSSPARE9:STA                                                 19529    longin      1 second    TCSSPARE9 status                        
 30  TCSSPARE10:STA                                                19530    longin      1 second    TCSSPARE10 status                       
 31  TCSSPARE11:STA                                                19531    longin      1 second    TCSSPARE11 status                       
 32  TCSSPARE12:STA                                                19532    longin      1 second    TCSSPARE12 status                       
 33  SV2201:STA                                                    19533    longin      1 second    SV2201 status                           
 34  SV2202:STA                                                    19534    longin      1 second    SV2202 status                           
 35  SV2203:STA                                                    19535    longin      1 second    SV2203 status                           
 36  SV2204:STA                                                    19536    longin      1 second    SV2204 status                           
 37  SV2205:STA                                                    19537    longin      1 second    SV2205 status                           
 38  SV2208:STA                                                    19538    longin      1 second    SV2208 status                           
 39  SV2219:STA                                                    19539    longin      1 second    SV2219 status                           
 40  SV2220:STA                                                    19540    longin      1 second    SV2220 status                           
 41  SV2221:STA                                                    19541    longin      1 second    SV2221 status                           
 42  SV2222:STA                                                    19542    longin      1 second    SV2222 status                           
 43  TCV2206:STA                                                   19543    longin      1 second    TCV2206 status                          
 44  SV2223:STA                                                    19544    longin      1 second    SV2223 status                           
 45  LWCSSPARE1:STA                                                19545    longin      1 second    LWCSSPARE1 status                       
 46  LWCSSPARE2:STA                                                19546    longin      1 second    LWCSSPARE2 status                       
 47  LWCSSPARE3:STA                                                19547    longin      1 second    LWCSSPARE3 status                       
 48  LWCSSPARE4:STA                                                19548    longin      1 second    LWCSSPARE4 status                       
 49  SV2301:STA                                                    19549    longin      1 second    SV2301 status                           
 50  SV2302:STA                                                    19550    longin      1 second    SV2302 status                           
 51  SV2303:STA                                                    19551    longin      1 second    SV2303 status                           
 52  SV2304:STA                                                    19552    longin      1 second    SV2304 status                           
 53  SV2305:STA                                                    19553    longin      1 second    SV2305 status                           
 54  SV2314:STA                                                    19554    longin      1 second    SV2314 status                           
 55  SV2315:STA                                                    19555    longin      1 second    SV2315 status                           
 56  SV2316:STA                                                    19556    longin      1 second    SV2316 status                           
 57  SV2317:STA                                                    19557    longin      1 second    SV2317 status                           
 58  SV2318:STA                                                    19558    longin      1 second    SV2318 status                           
 59  SV2319:STA                                                    19559    longin      1 second    SV2319 status                           
 60  SV2322:STA                                                    19560    longin      1 second    SV2322 status                           
 61  SV2323:STA                                                    19561    longin      1 second    SV2323 status                           
 62  SCSSPARE1:STA                                                 19562    longin      1 second    SCSSPARE1 status                        
 63  SCSSPARE2:STA                                                 19563    longin      1 second    SCSSPARE2 status                        
 64  SCSSPARE3:STA                                                 19564    longin      1 second    SCSSPARE3 status                        
 65  SV2401:STA                                                    19565    longin      1 second    SV2401 status                           
 66  SV2402:STA                                                    19566    longin      1 second    SV2402 status                           
 67  SV2403:STA                                                    19567    longin      1 second    SV2403 status                           
 68  SV2405:STA                                                    19568    longin      1 second    SV2405 status                           
 69  SV2406:STA                                                    19569    longin      1 second    SV2406 status                           
 70  SV2407:STA                                                    19570    longin      1 second    SV2407 status                           
 71  SV2408:STA                                                    19571    longin      1 second    SV2408 status                           
 72  SV2409:STA                                                    19572    longin      1 second    SV2409 status                           
 73  SV2410:STA                                                    19573    longin      1 second    SV2410 status                           
 74  SV2411:STA                                                    19574    longin      1 second    SV2411 status                           
 75  SV2412:STA                                                    19575    longin      1 second    SV2412 status                           
 76  SV2413:STA                                                    19576    longin      1 second    SV2413 status                           
 77  SV2414:STA                                                    19577    longin      1 second    SV2414 status                           
 78  SV2415:STA                                                    19578    longin      1 second    SV2415 status                           
 79  SV2416:STA                                                    19579    longin      1 second    SV2416 status                           
 80  SV2431:STA                                                    19580    longin      1 second    SV2431 status                           
 81  SV2433:STA                                                    19581    longin      1 second    SV2433 status                           
 82  SV2434:STA                                                    19582    longin      1 second    SV2434 status                           
 83  SV2435:STA                                                    19583    longin      1 second    SV2435 status                           
 84  SV2439:STA                                                    19584    longin      1 second    SV2439 status                           
 85  VFDSPARE1:STA                                                 19585    longin      1 second    VFDSPARE1 status                        
 86  VFDSPARE2:STA                                                 19586    longin      1 second    VFDSPARE2 status                        
 87  VFDSPARE3:STA                                                 19587    longin      1 second    VFDSPARE3 status                        
 88  VFDSPARE4:STA                                                 19588    longin      1 second    VFDSPARE4 status                        
 89  VFDSPARE5:STA                                                 19589    longin      1 second    VFDSPARE5 status                        
 90  VFDSPARE6:STA                                                 19590    longin      1 second    VFDSPARE6 status                        
 91  VFDSPARE7:STA                                                 19591    longin      1 second    VFDSPARE7 status                        
 92  VFDSPARE8:STA                                                 19592    longin      1 second    VFDSPARE8 status                        
 93  VFDSPARE9:STA                                                 19593    longin      1 second    VFDSPARE9 status                        
 94  VFDSPARE10:STA                                                19594    longin      1 second    VFDSPARE10 status                       
 95  VFDSPARE11:STA                                                19595    longin      1 second    VFDSPARE11 status                       
 96  VFDSPARE12:STA                                                19596    longin      1 second    VFDSPARE12 status                       
 97  PU2001_OP:STA                                                 19597    longin      1 second    PU2001_OP status                        
 98  PU2002_OP:STA                                                 19598    longin      1 second    PU2002_OP status                        
 99  PU2021_OP:STA                                                 19599    longin      1 second    PU2021_OP status                        
100  PU2041_OP:STA                                                 19600    longin      1 second    PU2041_OP status                        
101  PU2061_OP:STA                                                 19601    longin      1 second    PU2061_OP status                        
102  PU2062_OP:STA                                                 19602    longin      1 second    PU2062_OP status                        
103  PU2063_OP:STA                                                 19603    longin      1 second    PU2063_OP status                        
104  MACHINE_MODE:STA                                              19604    longin      1 second    MACHINE_ MODE status                    
105  PIA2502_LT_TBTA:READ                                          19605    longin      1 second    PIA2502 low trip TBTA                   
106  PIA2502_HT_TBTA:READ                                          19606    longin      1 second    PIA2502 high trip TBTA                  
107  PDIA2518_LT_TBTA:READ                                         19607    longin      1 second    PDIA2518 low trip TBTA                  
108  PDIA2518_HT_TBTA:READ                                         19608    longin      1 second    PDIA2518 high trip TBTA                 
109  PDIA2519_LT_TBTA:READ                                         19609    longin      1 second    PDIA2519 low trip TBTA                  
110  PDIA2519_HT_TBTA:READ                                         19610    longin      1 second    PDIA2519 high trip TBTA                 
111  FIA2506_LT_TBTA:READ                                          19611    longin      1 second    FIA2506 low trip TBTA                   
112  FIA2506_HT_TBTA:READ                                          19612    longin      1 second    FIA2506 high trip TBTA                  
113  FIA2507_LT_TBTA:READ                                          19613    longin      1 second    FIA2507 low trip TBTA                   
114  FIA2507_HT_TBTA:READ                                          19614    longin      1 second    FIA2507 high trip TBTA                  
115  FIA2508_LT_TBTA:READ                                          19615    longin      1 second    FIA2508 low trip TBTA                   
116  FIA2508_HT_TBTA:READ                                          19616    longin      1 second    FIA2508 high trip TBTA                  
117  FIA2509_LT_TBTA:READ                                          19617    longin      1 second    FIA2509 low trip TBTA                   
118  FIA2509_HT_TBTA:READ                                          19618    longin      1 second    FIA2509 high trip TBTA                  
119  PIA2607_LT_TBTA:READ                                          19619    longin      1 second    PIA2607 low trip TBTA                   
120  PIA2607_HT_TBTA:READ                                          19620    longin      1 second    PIA2607 high trip TBTA                  
121  SPARE1_LT_TBTA:READ                                           19621    longin      1 second    PIA2607 low trip TBTA                   
122  SPARE1_HT_TBTA:READ                                           19622    longin      1 second    SPARE1 high trip TBTA                   
123  SPARE2_LT_TBTA:READ                                           19623    longin      1 second    SPARE1 low trip TBTA                    
124  SPARE2_HT_TBTA:READ                                           19624    longin      1 second    SPARE2 high trip TBTA                   
125  SPARE3_LT_TBTA:READ                                           19625    longin      1 second    SPARE3 low trip TBTA                    
126  SPARE3_HT_TBTA:READ                                           19626    longin      1 second    SPARE3 high trip TBTA                   
127  SPARE4_LT_TBTA:READ                                           19627    longin      1 second    SPARE4 low trip TBTA                    
128  SPARE4_HT_TBTA:READ                                           19628    longin      1 second    SPARE4 high trip TBTA                   
129  SPARE5_LT_TBTA:READ                                           19629    longin      1 second    SPARE5 low trip TBTA                    
130  SPARE5_HT_TBTA:READ                                           19630    longin      1 second    SPARE5 high trip TBTA                   
131  SPARE6_LT_TBTA:READ                                           19631    longin      1 second    SPARE6 low trip TBTA                    
132  SPARE6_HT_TBTA:READ                                           19632    longin      1 second    SPARE6 high trip TBTA                   
133  SPARE7_LT_TBTA:READ                                           19633    longin      1 second    SPARE7 low trip TBTA                    
134  SPARE7_HT_TBTA:READ                                           19634    longin      1 second    SPARE7 high trip TBTA                   
135  SPARE8_LT_TBTA:READ                                           19635    longin      1 second    SPARE8 low trip TBTA                    
136  SPARE8_HT_TBTA:READ                                           19636    longin      1 second    SPARE8 high trip TBTA                   
137  TIA2505_LT_TBTA:READ                                          19637    longin      1 second    TIA2505 low trip TBTB                   
138  TIA2505_HT_TBTA:READ                                          19638    longin      1 second    TIA2505 high trip TBTB                  
139  TIA2510_LT_TBTA:READ                                          19639    longin      1 second    TIA2510 low trip TBTB                   
140  TIA2510_HT_TBTA:READ                                          19640    longin      1 second    TIA2510 high trip TBTB                  
141  TIA2511_LT_TBTA:READ                                          19641    longin      1 second    TIA2511 low trip TBTB                   
142  TIA2511_HT_TBTA:READ                                          19642    longin      1 second    TIA2511 high trip TBTB                  
143  LIA2517_LT_TBTA:READ                                          19643    longin      1 second    LIA2517 low trip TBTB                   
144  LIA2517_HT_TBTA:READ                                          19644    longin      1 second    LIA2517 high trip TBTB                  
145  LIA2518_LT_TBTA:READ                                          19645    longin      1 second    LIA2518 low trip TBTB                   
146  LIA2518_HT_TBTA:READ                                          19646    longin      1 second    LIA2518 high trip TBTB                  
147  LIA2708_LT_TBTA:READ                                          19647    longin      1 second    LIA2708 low trip TBTB                   
148  LIA2708_HT_TBTA:READ                                          19648    longin      1 second    LIA2708 high trip TBTB                  
149  LIA2802_LT_TBTA:READ                                          19649    longin      1 second    LIA2802 low trip TBTB                   
150  LIA2802_HT_TBTA:READ                                          19650    longin      1 second    LIA2802 high trip TBTB                  
151  SPARE1_LT_TBTB:READ                                           19651    longin      1 second    SPARE1 low trip TBTB                    
152  SPARE1_HT_TBTB:READ                                           19652    longin      1 second    SPARE1 high trip TBTB                   
153  SPARE2_LT_TBTB:READ                                           19653    longin      1 second    SPARE2 low trip TBTB                    
154  SPARE2_HT_TBTB:READ                                           19654    longin      1 second    SPARE2 high trip TBTB                   
155  SPARE3_LT_TBTB:READ                                           19655    longin      1 second    SPARE3 low trip TBTB                    
156  SPARE3_HT_TBTB:READ                                           19656    longin      1 second    SPARE3 high trip TBTB                   
157  SPARE4_LT_TBTB:READ                                           19657    longin      1 second    SPARE4 low trip TBTB                    
158  SPARE4_HT_TBTB:READ                                           19658    longin      1 second    SPARE4 high trip TBTB                   
159  SPARE5_LT_TBTB:READ                                           19659    longin      1 second    SPARE5 low trip TBTB                    
160  SPARE5_HT_TBTB:READ                                           19660    longin      1 second    SPARE5 high trip TBTB                   
161  SPARE6_LT_TBTB:READ                                           19661    longin      1 second    SPARE6 low trip TBTB                    
162  SPARE6_HT_TBTB:READ                                           19662    longin      1 second    SPARE6 high trip TBTB                   
163  SPARE7_LT_TBTB:READ                                           19663    longin      1 second    SPARE7 low trip TBTB                    
164  SPARE7_HT_TBTB:READ                                           19664    longin      1 second    SPARE7 high trip TBTB                   
165  SPARE8_LT_TBTB:READ                                           19665    longin      1 second    SPARE8 low trip TBTB                    
166  SPARE8_HT_TBTB:READ                                           19666    longin      1 second    SPARE8 high trip TBTB                   
167  SPARE9_LT_TBTB:READ                                           19667    longin      1 second    SPARE9 low trip TBTB                    
168  SPARE9_HT_TBTB:READ                                           19668    longin      1 second    SPARE9 high trip TBTB                   
169  TBTA_CHAIN_MADE:READ                                          19669    longin      1 second    TBTA_CHAIN_MADE                         
170  TBTA_OK:READ                                                  19670    longin      1 second    TBTA_OK                                 
171  TBTB_CHAIN_MADE:READ                                          19671    longin      1 second    TBTB_CHAIN_MADE                         
172  TBTB_OK:READ                                                  19672    longin      1 second    TBTB_OK                                 