 
  Database(P): EPICSRNG
  IP Address: None
 
NUM  PV Name                                                       Address  Type        Scan        DESC                                    
  1  WTR:EXTRACTSEPTUM1_PLC:DW3_PT0010_PRESS                                ai          1 second                                            
  2  WTR:EXTRACTSEPTUM1_PLC:DW3_TT0020_TEMP                                 ai          1 second                                            
  3  WTR:EXTRACTSEPTUM1_PLC:DW3_LT0010_PERCENT                              ai          1 second                                            
  4  WTR:EXTRACTSEPTUM1_PLC:DW4_PT0010_PRESS                                ai          1 second                                            
  5  WTR:EXTRACTSEPTUM1_PLC:DW4_TT0020_TEMP                                 ai          1 second                                            
  6  WTR:EXTRACTSEPTUM1_PLC:DW4_LT01_LEVEL                                  ai          1 second                                            
  7  MAGNET:SP0:DP:KLIXON:OVERALL:STATUS                                    ai          1 second                                            
  8  MAGNET:SP0:QD:KLIXON:OVERALL:STATUS                                    ai          1 second                                            
  9  MAGNET:SP0:QF:KLIXON:OVERALL:STATUS                                    ai          1 second                                            
 10  MAGNET:SP0:QTD:KLIXON:OVERALL:STATUS                                   ai          1 second                                            
 11  MAGNET:SP0:QTF:KLIXON:OVERALL:STATUS                                   ai          1 second                                            
 12  MAGNET:SP0:QC:KLIXON:OVERALL:STATUS                                    ai          1 second                                            
 13  MAGNET:SP0:HD:KLIXON:OVERALL:STATUS                                    ai          1 second                                            
 14  MAGNET:SP0:IHVD3:KLIXON:OVERALL:STATUS                                 ai          1 second                                            
 15  MAGNET:SP0:VD:KLIXON:OVERALL:STATUS                                    ai          1 second                                            
 16  MAGNET:SP1:DP:KLIXON:OVERALL:STATUS                                    ai          1 second                                            
 17  MAGNET:SP1:QD:KLIXON:OVERALL:STATUS                                    ai          1 second                                            
 18  MAGNET:SP1:QF:KLIXON:OVERALL:STATUS                                    ai          1 second                                            
 19  MAGNET:SP1:QTD:KLIXON:OVERALL:STATUS                                   ai          1 second                                            
 20  MAGNET:SP1:QTF:KLIXON:OVERALL:STATUS                                   ai          1 second                                            
 21  MAGNET:SP1:QC:KLIXON:OVERALL:STATUS                                    ai          1 second                                            
 22  MAGNET:SP2:DP:KLIXON:OVERALL:STATUS                                    ai          1 second                                            
 23  MAGNET:SP2:QD:KLIXON:OVERALL:STATUS                                    ai          1 second                                            
 24  MAGNET:SP2:QF:KLIXON:OVERALL:STATUS                                    ai          1 second                                            
 25  MAGNET:SP2:QTD:KLIXON:OVERALL:STATUS                                   ai          1 second                                            
 26  MAGNET:SP2:QTF:KLIXON:OVERALL:STATUS                                   ai          1 second                                            
 27  MAGNET:SP2:QC:KLIXON:OVERALL:STATUS                                    ai          1 second                                            
 28  MAGNET:SP2:HD:KLIXON:OVERALL:STATUS                                    ai          1 second                                            
 29  MAGNET:SP2:VD:KLIXON:OVERALL:STATUS                                    ai          1 second                                            
 30  MAGNET:SP3:DP:KLIXON:OVERALL:STATUS                                    ai          1 second                                            
 31  MAGNET:SP3:QD:KLIXON:OVERALL:STATUS                                    ai          1 second                                            
 32  MAGNET:SP3:QF:KLIXON:OVERALL:STATUS                                    ai          1 second                                            
 33  MAGNET:SP3:QTD:KLIXON:OVERALL:STATUS                                   ai          1 second                                            
 34  MAGNET:SP3:QTF:KLIXON:OVERALL:STATUS                                   ai          1 second                                            
 35  MAGNET:SP3:QC:KLIXON:OVERALL:STATUS                                    ai          1 second                                            
 36  MAGNET:SP3:HD:KLIXON:OVERALL:STATUS                                    ai          1 second                                            
 37  MAGNET:SP3:VD:KLIXON:OVERALL:STATUS                                    ai          1 second                                            
 38  MAGNET:SP4:DP:KLIXON:OVERALL:STATUS                                    ai          1 second                                            
 39  MAGNET:SP4:QD:KLIXON:OVERALL:STATUS                                    ai          1 second                                            
 40  MAGNET:SP4:QF:KLIXON:OVERALL:STATUS                                    ai          1 second                                            
 41  MAGNET:SP4:QTD:KLIXON:OVERALL:STATUS                                   ai          1 second                                            
 42  MAGNET:SP4:QTF:KLIXON:OVERALL:STATUS                                   ai          1 second                                            
 43  MAGNET:SP4:QC:KLIXON:OVERALL:STATUS                                    ai          1 second                                            
 44  MAGNET:SP4:HD:KLIXON:OVERALL:STATUS                                    ai          1 second                                            
 45  MAGNET:SP4:VD:KLIXON:OVERALL:STATUS                                    ai          1 second                                            
 46  MAGNET:SP5:DP:KLIXON:OVERALL:STATUS                                    ai          1 second                                            
 47  MAGNET:SP5:QD:KLIXON:OVERALL:STATUS                                    ai          1 second                                            
 48  MAGNET:SP5:QF:KLIXON:OVERALL:STATUS                                    ai          1 second                                            
 49  MAGNET:SP5:QTD:KLIXON:OVERALL:STATUS                                   ai          1 second                                            
 50  MAGNET:SP5:QTF:KLIXON:OVERALL:STATUS                                   ai          1 second                                            
 51  MAGNET:SP5:QC:KLIXON:OVERALL:STATUS                                    ai          1 second                                            
 52  MAGNET:SP5:HD:KLIXON:OVERALL:STATUS                                    ai          1 second                                            
 53  MAGNET:SP5:VD:KLIXON:OVERALL:STATUS                                    ai          1 second                                            
 54  MAGNET:SP6:DP:KLIXON:OVERALL:STATUS                                    ai          1 second                                            
 55  MAGNET:SP6:QD:KLIXON:OVERALL:STATUS                                    ai          1 second                                            
 56  MAGNET:SP6:QF:KLIXON:OVERALL:STATUS                                    ai          1 second                                            
 57  MAGNET:SP6:QTD:KLIXON:OVERALL:STATUS                                   ai          1 second                                            
 58  MAGNET:SP6:QTF:KLIXON:OVERALL:STATUS                                   ai          1 second                                            
 59  MAGNET:SP6:QC:KLIXON:OVERALL:STATUS                                    ai          1 second                                            
 60  MAGNET:SP7:DP:KLIXON:OVERALL:STATUS                                    ai          1 second                                            
 61  MAGNET:SP7:QD:KLIXON:OVERALL:STATUS                                    ai          1 second                                            
 62  MAGNET:SP7:QF:KLIXON:OVERALL:STATUS                                    ai          1 second                                            
 63  MAGNET:SP7:QTD:KLIXON:OVERALL:STATUS                                   ai          1 second                                            
 64  MAGNET:SP7:QTF:KLIXON:OVERALL:STATUS                                   ai          1 second                                            
 65  MAGNET:SP7:QC:KLIXON:OVERALL:STATUS                                    ai          1 second                                            
 66  MAGNET:SP7:HD:KLIXON:OVERALL:STATUS                                    ai          1 second                                            
 67  MAGNET:SP7:VD:KLIXON:OVERALL:STATUS                                    ai          1 second                                            
 68  MAGNET:SP8:DP:KLIXON:OVERALL:STATUS                                    ai          1 second                                            
 69  MAGNET:SP8:QD:KLIXON:OVERALL:STATUS                                    ai          1 second                                            
 70  MAGNET:SP8:QF:KLIXON:OVERALL:STATUS                                    ai          1 second                                            
 71  MAGNET:SP8:QTD:KLIXON:OVERALL:STATUS                                   ai          1 second                                            
 72  MAGNET:SP8:QTF:KLIXON:OVERALL:STATUS                                   ai          1 second                                            
 73  MAGNET:SP8:QC:KLIXON:OVERALL:STATUS                                    ai          1 second                                            
 74  MAGNET:SP9:DP:KLIXON:OVERALL:STATUS                                    ai          1 second                                            
 75  MAGNET:SP9:QD:KLIXON:OVERALL:STATUS                                    ai          1 second                                            
 76  MAGNET:SP9:QF:KLIXON:OVERALL:STATUS                                    ai          1 second                                            
 77  MAGNET:SP9:QTD:KLIXON:OVERALL:STATUS                                   ai          1 second                                            
 78  MAGNET:SP9:QTF:KLIXON:OVERALL:STATUS                                   ai          1 second                                            
 79  MAGNET:SP9:QC:KLIXON:OVERALL:STATUS                                    ai          1 second                                            
 80  MAGNET:SP9:HD:KLIXON:OVERALL:STATUS                                    ai          1 second                                            
 81  MAGNET:SP9:VD:KLIXON:OVERALL:STATUS                                    ai          1 second                                            
 82  MAGNET:SP2:OCT:KLIXON:OVERALL:STATUS                                   ai          1 second                                            
 83  MAGNET:SP9:SXT:KLIXON:OVERALL:STATUS                                   ai          1 second                                            
 84  MAGNET:KICKER:1P:THERMOCOUPLE:1:TEMP                                   ai          1 second                                            
 85  MAGNET:KICKER:1P:THERMOCOUPLE:2:TEMP                                   ai          1 second                                            
 86  MAGNET:KICKER:1P:THERMOCOUPLE:3:TEMP                                   ai          1 second                                            
 87  MAGNET:KICKER:1P:THERMOCOUPLE:4:TEMP                                   ai          1 second                                            
 88  MAGNET:KICKER:1P:THERMOCOUPLE:5:TEMP                                   ai          1 second                                            
 89  MAGNET:KICKER:1P:THERMOCOUPLE:6:TEMP                                   ai          1 second                                            
 90  MAGNET:KICKER:1P:THERMOCOUPLE:7:TEMP                                   ai          1 second                                            
 91  MAGNET:KICKER:1P:THERMOCOUPLE:8:TEMP                                   ai          1 second                                            
 92  MAGNET:KICKER:1N:THERMOCOUPLE:1:TEMP                                   ai          1 second                                            
 93  MAGNET:KICKER:1N:THERMOCOUPLE:2:TEMP                                   ai          1 second                                            
 94  MAGNET:KICKER:1N:THERMOCOUPLE:3:TEMP                                   ai          1 second                                            
 95  MAGNET:KICKER:1N:THERMOCOUPLE:4:TEMP                                   ai          1 second                                            
 96  MAGNET:KICKER:1N:THERMOCOUPLE:5:TEMP                                   ai          1 second                                            
 97  MAGNET:KICKER:1N:THERMOCOUPLE:6:TEMP                                   ai          1 second                                            
 98  MAGNET:KICKER:1N:THERMOCOUPLE:7:TEMP                                   ai          1 second                                            
 99  MAGNET:KICKER:1N:THERMOCOUPLE:8:TEMP                                   ai          1 second                                            
100  MAGNET:KICKER:2P:THERMOCOUPLE:1:TEMP                                   ai          1 second                                            
101  MAGNET:KICKER:2P:THERMOCOUPLE:2:TEMP                                   ai          1 second                                            
102  MAGNET:KICKER:2P:THERMOCOUPLE:3:TEMP                                   ai          1 second                                            
103  MAGNET:KICKER:2P:THERMOCOUPLE:4:TEMP                                   ai          1 second                                            
104  MAGNET:KICKER:2P:THERMOCOUPLE:5:TEMP                                   ai          1 second                                            
105  MAGNET:KICKER:2P:THERMOCOUPLE:6:TEMP                                   ai          1 second                                            
106  MAGNET:KICKER:2P:THERMOCOUPLE:7:TEMP                                   ai          1 second                                            
107  MAGNET:KICKER:2P:THERMOCOUPLE:8:TEMP                                   ai          1 second                                            
108  MAGNET:KICKER:2N:THERMOCOUPLE:1:TEMP                                   ai          1 second                                            
109  MAGNET:KICKER:2N:THERMOCOUPLE:2:TEMP                                   ai          1 second                                            
110  MAGNET:KICKER:2N:THERMOCOUPLE:3:TEMP                                   ai          1 second                                            
111  MAGNET:KICKER:2N:THERMOCOUPLE:4:TEMP                                   ai          1 second                                            
112  MAGNET:KICKER:2N:THERMOCOUPLE:5:TEMP                                   ai          1 second                                            
113  MAGNET:KICKER:2N:THERMOCOUPLE:6:TEMP                                   ai          1 second                                            
114  MAGNET:KICKER:2N:THERMOCOUPLE:7:TEMP                                   ai          1 second                                            
115  MAGNET:KICKER:2N:THERMOCOUPLE:8:TEMP                                   ai          1 second                                            
116  MAGNET:KICKER:3P:THERMOCOUPLE:1:TEMP                                   ai          1 second                                            
117  MAGNET:KICKER:3P:THERMOCOUPLE:2:TEMP                                   ai          1 second                                            
118  MAGNET:KICKER:3P:THERMOCOUPLE:3:TEMP                                   ai          1 second                                            
119  MAGNET:KICKER:3P:THERMOCOUPLE:4:TEMP                                   ai          1 second                                            
120  MAGNET:KICKER:3P:THERMOCOUPLE:5:TEMP                                   ai          1 second                                            
121  MAGNET:KICKER:3P:THERMOCOUPLE:6:TEMP                                   ai          1 second                                            
122  MAGNET:KICKER:3P:THERMOCOUPLE:7:TEMP                                   ai          1 second                                            
123  MAGNET:KICKER:3P:THERMOCOUPLE:8:TEMP                                   ai          1 second                                            
124  MAGNET:KICKER:3N:THERMOCOUPLE:1:TEMP                                   ai          1 second                                            
125  MAGNET:KICKER:3N:THERMOCOUPLE:2:TEMP                                   ai          1 second                                            
126  MAGNET:KICKER:3N:THERMOCOUPLE:3:TEMP                                   ai          1 second                                            
127  MAGNET:KICKER:3N:THERMOCOUPLE:4:TEMP                                   ai          1 second                                            
128  MAGNET:KICKER:3N:THERMOCOUPLE:5:TEMP                                   ai          1 second                                            
129  MAGNET:KICKER:3N:THERMOCOUPLE:6:TEMP                                   ai          1 second                                            
130  MAGNET:KICKER:3N:THERMOCOUPLE:7:TEMP                                   ai          1 second                                            
131  MAGNET:KICKER:3N:THERMOCOUPLE:8:TEMP                                   ai          1 second                                            
132  SRBD:THERMOCOUPLE:1:TEMP                                               ai          1 second                                            
133  SRBD:THERMOCOUPLE:2:TEMP                                               ai          1 second                                            
134  SRBD:THERMOCOUPLE:3:TEMP                                               ai          1 second                                            
135  SRBD:THERMOCOUPLE:4:TEMP                                               ai          1 second                                            
136  SRBD:THERMOCOUPLE:5:TEMP                                               ai          1 second                                            
137  SRBD:THERMOCOUPLE:6:TEMP                                               ai          1 second                                            
138  MAGNET:KICKER:THERMOCOUPLE:COMMS:STATUS                                ai          1 second                                            
139  MAGNET:SRBD:THERMOCOUPLE:COMMS:STATUS                                  ai          1 second                                            
140  MAGNET:KLIXON:FUSE8:STATUS                                             ai          1 second                                            
141  MAGNET:KLIXON:FUSE9:STATUS                                             ai          1 second                                            
142  MAGNET:KLIXON:FUSE10:STATUS                                            ai          1 second                                            
143  MAGNET:KLIXON:FUSE11:STATUS                                            ai          1 second                                            
144  MAGNET:KLIXON:FUSE12:STATUS                                            ai          1 second                                            
145  MAGNET:KLIXON:FUSE13:STATUS                                            ai          1 second                                            
146  MAGNET:KLIXON:FUSE14:STATUS                                            ai          1 second                                            
147  MAGNET:KLIXON:FUSE15:STATUS                                            ai          1 second                                            
148  MAGNET:KLIXON:FUSE16:STATUS                                            ai          1 second                                            
149  MAGNET:KLIXON:FUSE17:STATUS                                            ai          1 second                                            
150  MAGNET:KLIXON:FUSE18:STATUS                                            ai          1 second                                            
151  MAGNET:KLIXON:FUSE19:STATUS                                            ai          1 second                                            
152  MAGNET:KLIXON:FUSE20:STATUS                                            ai          1 second                                            
153  MAGNET:KLIXON:FUSE21:STATUS                                            ai          1 second                                            
154  MAGNET:KLIXON:FUSE22:STATUS                                            ai          1 second                                            
155  MAGNET:KLIXON:FUSE23:STATUS                                            ai          1 second                                            
156  MAGNET:KLIXON:FUSE24:STATUS                                            ai          1 second                                            
157  MAGNET:KLIXON:FUSE25:STATUS                                            ai          1 second                                            
158  MAGNET:KLIXON:FUSE26:STATUS                                            ai          1 second                                            
159  MAGNET:KLIXON:FUSE27:STATUS                                            ai          1 second                                            
160  MAGNET:KLIXON:FUSE28:STATUS                                            ai          1 second                                            
161  MAGNET:KLIXON:FUSE29:STATUS                                            ai          1 second                                            
162  MAGNET:KLIXON:FUSE30:STATUS                                            ai          1 second                                            
163  MAGNET:KLIXON:FUSE31:STATUS                                            ai          1 second                                            
164  MAGNET:KLIXON:FUSE32:STATUS                                            ai          1 second                                            
165  MAGNET:KLIXON:FUSE33:STATUS                                            ai          1 second                                            
166  MAGNET:KLIXON:FUSE34:STATUS                                            ai          1 second                                            
167  MAGNET:KLIXON:FUSE35:STATUS                                            ai          1 second                                            
168  MAGNET:KLIXON:FUSE36:STATUS                                            ai          1 second                                            
169  MAGNET:KLIXON:FUSE37:STATUS                                            ai          1 second                                            
170  MAGNET:KLIXON:FUSE38:STATUS                                            ai          1 second                                            
171  MAGNET:KLIXON:FUSE39:STATUS                                            ai          1 second                                            
172  MAGNET:KLIXON:FUSE40:STATUS                                            ai          1 second                                            
173  MAGNET:KLIXON:FUSE41:STATUS                                            ai          1 second                                            
174  MAGNET:KLIXON:FUSE42:STATUS                                            ai          1 second                                            
175  MAGNET:KLIXON:FUSE43:STATUS                                            ai          1 second                                            
176  MAGNET:KLIXON:FUSE44:STATUS                                            ai          1 second                                            
177  MAGNET:KLIXON:FUSE45:STATUS                                            ai          1 second                                            
178  MAGNET:KLIXON:FUSE46:STATUS                                            ai          1 second                                            
179  MAGNET:KLIXON:FUSE47:STATUS                                            ai          1 second                                            
180  WTR:R6AWATERPLANT_PLC:CKW_LT001                                        ai          1 second                                            
181  WTR:R6AWATERPLANT_PLC:CKWLLS001TANKLEVELSWITCH                         ai          1 second                                            
182  WTR:R6AWATERPLANT_PLC:CKW_PI001                                        ai          1 second                                            
183  WTR:R6AWATERPLANT_PLC:CKW_TT002RETURNTEMP                              ai          1 second                                            
184  WTR:R6AWATERPLANT_PLC:CKWTT001SUPPLYTEMP                               ai          1 second                                            
185  WTR:R6AWATERPLANT_PLC:CKW_CT001                                        ai          1 second                                            
186  WTR:R6AWATERPLANT_PLC:CKW_VSD1_FAULT                                   ai          1 second                                            
187  WTR:R6AWATERPLANT_PLC:CKW_VSD2_FAULT                                   ai          1 second                                            
188  WTR:R6AWATERPLANT_PLC:CKW_Q0001                                        ai          1 second                                            
189  WTR:R6AWATERPLANT_PLC:PSW_LT001                                        ai          1 second                                            
190  WTR:R6AWATERPLANT_PLC:PSWLLS001TANKLEVELSWITCH                         ai          1 second                                            
191  WTR:R6AWATERPLANT_PLC:PSW_PIT001                                       ai          1 second                                            
192  WTR:R6AWATERPLANT_PLC:PSW_TT002                                        ai          1 second                                            
193  WTR:R6AWATERPLANT_PLC:PSW_TT001                                        ai          1 second                                            
194  WTR:R6AWATERPLANT_PLC:PSW_CT001                                        ai          1 second                                            
195  WTR:R6AWATERPLANT_PLC:PSW_VSD1_FAULT                                   ai          1 second                                            
196  WTR:R6AWATERPLANT_PLC:PSW_VSD2_FAULT                                   ai          1 second                                            
197  WTR:R6AWATERPLANT_PLC:DCW_LT001                                        ai          1 second                                            
198  WTR:R6AWATERPLANT_PLC:DCW_LLS001                                       ai          1 second                                            
199  WTR:R6AWATERPLANT_PLC:DCW_PIT001                                       ai          1 second                                            
200  WTR:R6AWATERPLANT_PLC:DCW_TT002                                        ai          1 second                                            
201  WTR:R6AWATERPLANT_PLC:DCW_TT001                                        ai          1 second                                            
202  WTR:R6AWATERPLANT_PLC:DCW_CT001                                        ai          1 second                                            
203  WTR:R6AWATERPLANT_PLC:DCW_VSD1_FAULT                                   ai          1 second                                            
204  WTR:R6AWATERPLANT_PLC:DCW_VSD2_FAULT                                   ai          1 second                                            
205  WTR:R6AWATERPLANT_PLC:PW5_LT001_LEVEL                                  ai          1 second                                            
206  WTR:R6AWATERPLANT_PLC:PW5_LLS001                                       ai          1 second                                            
207  WTR:R6AWATERPLANT_PLC:SUPPLYPRESSUREPW5_PIT001                         ai          1 second                                            
208  WTR:R6AWATERPLANT_PLC:PW5_TT006ADIABATICOUTPUT                         ai          1 second                                            
209  WTR:R6AWATERPLANT_PLC:PW5_TT001                                        ai          1 second                                            
210  WTR:R6AWATERPLANT_PLC:PW5_VSD1_FAULT                                   ai          1 second                                            
211  WTR:R6AWATERPLANT_PLC:PW5_VSD2_FAULT                                   ai          1 second                                            
212  WTR:R6AWATERPLANT_PLC:PW5_VSD3_FAULT                                   ai          1 second                                            
213  WTR:R6AWATERPLANT_PLC:SUPPLYPRESSURECW5_PIT001                         ai          1 second                                            
214  WTR:R6AWATERPLANT_PLC:CW5_VSD1_FAULT                                   ai          1 second                                            
215  WTR:R6AWATERPLANT_PLC:CW5_VSD2_FAULT                                   ai          1 second                                            
216  WTR:R6AWATERPLANT_PLC:CW5ESTOPACTIVE                                   ai          1 second                                            
217  WTR:R6AWATERPLANT_PLC:CHILLER1FAULT                                    ai          1 second                                            
218  WTR:R6AWATERPLANT_PLC:CHILLER2FAULT                                    ai          1 second                                            
219  WTR:R6AWATERPLANT_PLC:CHILLER3FAULT                                    ai          1 second                                            
220  WTR:R6AWATERPLANT_PLC:SUPPLYTEMPCW5_TT008                              ai          1 second                                            
221  WTR:R6AWATERPLANT_PLC:RETURNTEMPCW5_TT009                              ai          1 second                                            
222  HVAC:R4_AIR:CA1_PT0010:PRESSURE                                        ai          1 second                                            
223  HVAC:R4_AIR:CA1_PT0020:PRESSURE                                        ai          1 second                                            
224  HVAC:R4_AIR:CHILLER1:STATUS                                            ai          1 second                                            
225  HVAC:R4_AIR:CHILLER2:STATUS                                            ai          1 second                                            
226  HVAC:R4_AIR:CHILLER3:STATUS                                            ai          1 second                                            
227  HVAC:R4_AIR:CW2_LT0010:LEVEL                                           ai          1 second                                            
228  HVAC:R4_AIR:FREON_GAS_ALARM:STATUS                                     ai          1 second                                            
229  HVAC:R4_AIR:RS_CW2_TT0150:TEMPERETURE                                  ai          1 second                                            
230  HVAC:R4_AIR:RS_CW2_TT0160:TEMPERATURE                                  ai          1 second                                            
231  HVAC:R4_AIR:RS_VS1_TT0010:TEMPERATURE                                  ai          1 second                                            
232  HVAC:R4_AIR:VS1_FIT0010:FLOW                                           ai          1 second                                            
233  HVAC:R4_AIR:VS1_FIT0020:FLOW                                           ai          1 second                                            
234  HVAC:R4_AIR:VS1_FIT0030:FLOW                                           ai          1 second                                            
235  HVAC:R4_AIR:E_STOP:STATUS                                              ai          1 second                                            
236  HVAC:R4_AIR:R4_FORCED_STOP:STATUS                                      ai          1 second                                            
237  HVAC:R4_AIR:VS1_TT0020:TEMPERATURE                                     ai          1 second                                            
238  HVAC:R4_AIR:HEARTBEAT                                                  ai          1 second                                            
239  WTR:RFCAVITIES_PLC:PLC_HEARTBEAT                                       ai          1 second                                            
240  WTR:RFCAVITIES_PLC:DW23_LT0010_PERCENT                                 ai          1 second                                            
241  WTR:RFCAVITIES_PLC:CW1_FT0040_FLOW                                     ai          1 second                                            
242  WTR:RFCAVITIES_PLC:DW23_PT0070_PRES                                    ai          1 second                                            
243  WTR:RFCAVITIES_PLC:DW23_TT0050_TEMP                                    ai          1 second                                            
244  WTR:RFCAVITIES_PLC:DW23_TT0060_TEMP                                    ai          1 second                                            
245  WTR:RFCAVITIES_PLC:DW23_TT0070_TEMP                                    ai          1 second                                            
246  WTR:RFCAVITIES_PLC:DW23_TT0080_TEMP                                    ai          1 second                                            
247  WTR:RFCAVITIES_PLC:DW23_TT0081_TEMP                                    ai          1 second                                            
248  WTR:RFCAVITIES_PLC:DW23_TT0090_TEMP                                    ai          1 second                                            
249  WTR:RFCAVITIES_PLC:DW23_TT0091_TEMP                                    ai          1 second                                            
250  WTR:RFCAVITIES_PLC:DW23_TT0100_TEMP                                    ai          1 second                                            
251  WTR:RFCAVITIES_PLC:DW23_TT0101_TEMP                                    ai          1 second                                            
252  WTR:RFCAVITIES_PLC:DW23_TT0110_TEMP                                    ai          1 second                                            
253  WTR:RFCAVITIES_PLC:DW23_TT0111_TEMP                                    ai          1 second                                            
254  WTR:RFCAVITIES_PLC:CW1_TT0190_TEMP                                     ai          1 second                                            
255  WTR:RFCAVITIES_PLC:CW1_TT0200_TEMP                                     ai          1 second                                            
256  WTR:RFCAVITIES_PLC:DW23_FT0040_FLOW                                    ai          1 second                                            
257  WTR:RFCAVITIES_PLC:DW23_FT0030_FLOW                                    ai          1 second                                            
258  WTR:RFCAVITIES_PLC:DW23_FT0020_FLOW                                    ai          1 second                                            
259  WTR:RFCAVITIES_PLC:DW23_FT0010_FLOW                                    ai          1 second                                            
260  WTR:RFCAVITIES_PLC:DW23_PRESSSETPOINT                                  ai          1 second                                            
261  WTR:RFCAVITIES_PLC:DW23_TEMPSETPOINT                                   ai          1 second                                            
262  WTR:RFCAVITIES_PLC:DW23_RFC4_TEMPSETPOINT                              ai          1 second                                            
263  WTR:RFCAVITIES_PLC:DW23_RFC5_TEMPSETPOINT                              ai          1 second                                            
264  WTR:RFCAVITIES_PLC:DW23_RFC6_TEMPSETPOINT                              ai          1 second                                            
265  WTR:RFCAVITIES_PLC:DW23_RFC8_TEMPSETPOINT                              ai          1 second                                            
266  WTR:RFCAVITIES_PLC:DW23_P001_STATUS                                    ai          1 second                                            
267  WTR:RFCAVITIES_PLC:DW23_P002_STATUS                                    ai          1 second                                            
268  WTR:RFCAVITIES_PLC:DW23_P001_FREQ                                      ai          1 second                                            
269  WTR:RFCAVITIES_PLC:DW23_P002_FREQ                                      ai          1 second                                            
270  WTR:RFCAVITIES_PLC:DW23_V07620_STATUS                                  ai          1 second                                            
271  WTR:RFCAVITIES_PLC:DW23_V07640_STATUS                                  ai          1 second                                            
272  WTR:RFCAVITIES_PLC:DW23_CV0080_STATUS                                  ai          1 second                                            
273  WTR:RFCAVITIES_PLC:DW23_CV0090_STATUS                                  ai          1 second                                            
274  WTR:RFCAVITIES_PLC:DW23_CV0100_STATUS                                  ai          1 second                                            
275  WTR:RFCAVITIES_PLC:DW23_CV0110_STATUS                                  ai          1 second                                            
276  WTR:RFCAVITIES_PLC:CW1_CV0060_STATUS                                   ai          1 second                                            
277  WTR:RFCAVITIES_PLC:DW23_CV0080_PERCENT                                 ai          1 second                                            
278  WTR:RFCAVITIES_PLC:DW23_CV0090_PERCENT                                 ai          1 second                                            
279  WTR:RFCAVITIES_PLC:DW23_CV0100_PERCENT                                 ai          1 second                                            
280  WTR:RFCAVITIES_PLC:DW23_CV0110_PERCENT                                 ai          1 second                                            
281  WTR:RFCAVITIES_PLC:CW1_CV0060_PERCENT                                  ai          1 second                                            
282  WTR:RFCAVITIES_PLC:HP1_FT0110_INTER                                    ai          1 second                                            
283  WTR:RFCAVITIES_PLC:HP1_FT0100_INTER                                    ai          1 second                                            
284  WTR:RFCAVITIES_PLC:HP1_FT0090_INTER                                    ai          1 second                                            
285  WTR:RFCAVITIES_PLC:HP1_FT0080_INTER                                    ai          1 second                                            
286  WTR:RFCAVITIES_PLC:DW23_FT0040_INTER                                   ai          1 second                                            
287  WTR:RFCAVITIES_PLC:DW23_FT0030_INTER                                   ai          1 second                                            
288  WTR:RFCAVITIES_PLC:DW23_FT0020_INTER                                   ai          1 second                                            
289  WTR:RFCAVITIES_PLC:DW23_FT0010_INTER                                   ai          1 second                                            