 
  Database(P): R2RF
  IP Address: None
 
NUM  PV Name                                                       Address  Type        Scan        DESC                                    
  1  MANLOAD:DAT                                                            waveform    1 second    BSM 37a                                 
  2  MANLOAD:DAT:HPARAM1                                                    longout                                                         
  3  MANLOAD:TXT                                                            stringout               Name of channels to be loaded.          
  4  MSG_CHAN:TXT                                                           stringout               Display general message.                
  5  MSG_CHAN:SET_TXT                                                       stringout               Display function (FID) currently set.   
  6  FUNC_VALS:CAP_TXT                                                      stringout               Caption for function values screen.     
  7  ARRAY_ELEMENT:X1                                                       ao                      1st x coordinate                        
  8  ARRAY_ELEMENT:X2                                                       ao                      2nd x coordinate                        
  9  ARRAY_ELEMENT:X3                                                       ao                      3rd x coordinate                        
 10  ARRAY_ELEMENT:X4                                                       ao                      4th x coordinate                        
 11  ARRAY_ELEMENT:X5                                                       ao                      5th x coordinate                        
 12  ARRAY_ELEMENT:X6                                                       ao                      6th x coordinate                        
 13  ARRAY_ELEMENT:X7                                                       ao                      7th x coordinate                        
 14  ARRAY_ELEMENT:X8                                                       ao                      8th x coordinate                        
 15  ARRAY_ELEMENT:X9                                                       ao                      9th x coordinate                        
 16  ARRAY_ELEMENT:X10                                                      ao                      10th x coordinate                       
 17  ARRAY_ELEMENT:X11                                                      ao                      11th x coordinate                       
 18  ARRAY_ELEMENT:X12                                                      ao                      12th x coordinate                       
 19  ARRAY_ELEMENT:X13                                                      ao                      13th x coordinate                       
 20  ARRAY_ELEMENT:X14                                                      ao                      14th x coordinate                       
 21  ARRAY_ELEMENT:X15                                                      ao                      15th x coordinate                       
 22  ARRAY_ELEMENT:X16                                                      ao                      16th x coordinate                       
 23  ARRAY_ELEMENT:X17                                                      ao                      17th x coordinate                       
 24  ARRAY_ELEMENT:X18                                                      ao                      18th x coordinate                       
 25  ARRAY_ELEMENT:X19                                                      ao                      19th x coordinate                       
 26  ARRAY_ELEMENT:X20                                                      ao                      20th x coordinate                       
 27  ARRAY_ELEMENT:Y1                                                       ao                      1st y coordinate                        
 28  ARRAY_ELEMENT:Y2                                                       ao                      2nd y coordinate                        
 29  ARRAY_ELEMENT:Y3                                                       ao                      3rd y coordinate                        
 30  ARRAY_ELEMENT:Y4                                                       ao                      4th y coordinate                        
 31  ARRAY_ELEMENT:Y5                                                       ao                      5th y coordinate                        
 32  ARRAY_ELEMENT:Y6                                                       ao                      6th y coordinate                        
 33  ARRAY_ELEMENT:Y7                                                       ao                      7th y coordinate                        
 34  ARRAY_ELEMENT:Y8                                                       ao                      8th y coordinate                        
 35  ARRAY_ELEMENT:Y9                                                       ao                      9th y coordinate                        
 36  ARRAY_ELEMENT:Y10                                                      ao                      10th y coordinate                       
 37  ARRAY_ELEMENT:Y11                                                      ao                      11th y coordinate                       
 38  ARRAY_ELEMENT:Y12                                                      ao                      12th y coordinate                       
 39  ARRAY_ELEMENT:Y13                                                      ao                      13th y coordinate                       
 40  ARRAY_ELEMENT:Y14                                                      ao                      14th y coordinate                       
 41  ARRAY_ELEMENT:Y15                                                      ao                      15th y coordinate                       
 42  ARRAY_ELEMENT:Y16                                                      ao                      16th y coordinate                       
 43  ARRAY_ELEMENT:Y17                                                      ao                      17th y coordinate                       
 44  ARRAY_ELEMENT:Y18                                                      ao                      18th y coordinate                       
 45  ARRAY_ELEMENT:Y19                                                      ao                      19th y coordinate                       
 46  ARRAY_ELEMENT:Y20                                                      ao                      20th y coordinate                       
 47  FUNC_ID:NUM                                                            longout                 Function identification number.         
 48  FUNC:TYPE                                                              longout                 1 = F, 2 = W, 3 = AFLAW.                
 49  DISPLAY:DAT                                                            waveform    1 second                                            
 50  DISPLAY_AFLAW:DAT                                                      waveform    1 second                                            
 51  DISPLAY_W:DAT                                                          waveform    1 second                                            
 52  CONVERT:BEF_FLAG                                                       longout                 Input flag - 1 B field, 2 energy, 3 frequency.
 53  CONVERT:BFIELD                                                         ao                      B field output (Tesla).                 
 54  CONVERT:EN                                                             ao                      Energy output (MeV).                    
 55  CONVERT:FREQ                                                           ao                      Frequency output (MHz).                 
 56  CONVERT:IP_BFIELD                                                      ao                      B field input (Tesla).                  
 57  CONVERT:IP_EN                                                          ao                      Energy input (MeV).                     
 58  CONVERT:IP_FREQ                                                        ao                      Frequency input (MHz).                  
 59  CONV_BEF:FREQ                                                          ao                      Frequency (MHz).                        
 60  DISPLAY:PIP                                                            stringout               General PIP control channel.            
 61  DISPLAY_GRAPH:PIP                                                      stringout               Graph PIP control channel.              
 62  DISPLAY_GAPVALS_GRAPH:PIP                                              stringout               Gap values Graph PIP control channel.   
 63  LOAD:FLAG                                                              longout                 Confirm LOAD FGEN function.             
 64  LOAD_FGEN:EXPTL                                                        longout                 Load EXPERIMENTAL function generator.   
 65  LOAD_FGEN:NORMAL                                                       longout                 Load NORMAL function generator.         
 66  MOD_INPUT:INT1                                                         longout                 Integer value input by user.            
 67  MOD_INPUT:INT2                                                         longout                 Integer value input by user.            
 68  MOD_INPUT:REAL                                                         ao                      Real value input by user.               
 69  MOD_INPUT:REAL1                                                        ao                      Real value input by user for BCG.       
 70  MOD_INPUT:REAL2                                                        ao                      Real value input by user for BCG.       
 71  MOD_INPUT:VARG                                                         longout                 Function modification type.             
 72  MOD_OPS:VOLTS                                                          ao                      Voltage input by user.                  
 73  MOD_OPS:DPFLAG                                                         longout                 Move 10 delta-p flag.                   
 74  MOD_OPS:LFL                                                            longout                 Lower function limit (x0).              
 75  MOD_OPS:NUM_MOVE                                                       longout                 Number of moves made.                   
 76  MOD_OPS:OLD_VOLTS                                                      ao                      Last voltage input by user.             
 77  MOD_OPS:POINT                                                          longout                 Point to be modified.                   
 78  MOD_OPS:RFLAG                                                          longout                 Repeat flag.                            
 79  MOD_OPS:SFLAG                                                          longout                 Subtract flag.                          
 80  MOD_OPS:UFL                                                            longout                 Upper function limit (x1).              
 81  MOD_OPS:VARG                                                           longout                 Operation identifier.                   
 82  NE_MOD:FLAG                                                            longout                 Normal/Exptl function flag.             
 83  VT_MOD:VARG                                                            longout                 Modification case.                      
 84  VT_MOD:ELEMENTS                                                        longout                 Number of elements in function.         
 85  VT_MOD:INPUT_TIME                                                      ao                      Time input by user.                     
 86  VT_MOD:LFL                                                             ao                      Lower function limit input by user.     
 87  VT_MOD:UFL                                                             ao                      Upper function limit input by user.     
 88  VT_MOD:SF                                                              ao                      Scale factor input by user.             
 89  DDP_MOD:VARG                                                           longout                 Modification case.                      
 90  DDP_MOD:ELEMENTS                                                       longout                 Number of elements in function.         
 91  DDP_MOD:INPUT_DP                                                       ao                      Delta-P input by user.                  
 92  SAVEFILE:NAME                                                          stringout               Data file name                          
 93  BCDEL:SP_NO                                                            longout                 Beam Comp. Delay super-period number.   
 94  BCDEL_MOD:INPUT_VOLTS                                                  ao                      User input: Beam Comp. Delay Volts (V). 
 95  BCDEL_TIME:DAT                                                         waveform    1 second    Beam Comp. Delay array: times (ms).     
 96  BCDEL_VOLTS:DAT                                                        waveform    1 second    Beam Comp. Delay array: voltages (V).   
 97  BCGAIN:SP_NO                                                           longout                 Beam Comp. Gain super-period number.    
 98  BCGAIN_MOD:INPUT_VOLTS                                                 ao                      User input: Beam Comp. Gain Volts (V).  
 99  BCGAIN_TIME:DAT                                                        waveform    1 second    Beam Comp. Gain array: times (ms).      
100  BCGAIN_VOLTS:DAT                                                       waveform    1 second    Beam Comp. Gain array: voltages (V).    
101  GAPV_MOD:INPUT_TIME                                                    ao                      User input: Gap Volts time (ms).        
102  GAPV_MOD:INPUT_VOLTS                                                   ao                      User input: Gap Volts (kV).             
103  GAPV_MOD:INPUT_DCVOLTS                                                 ao                      User input: DC level (kV).              
104  GAPV:MSK                                                               longout                 Gap Volts power of 2 (k).               
105  GAPV_TIME:DAT                                                          waveform    1 second    Gap Volts array: times (ms).            
106  GAPVN_TIME:DAT                                                         waveform    1 second    Gap Volts Normal function array: times (ms).
107  GAPV_VOLTS:DAT                                                         waveform    1 second    Gap Volts array: voltages (kV).         
108  GAPVN_VOLTS:DAT                                                        waveform    1 second    Gap Volts Normal function array: voltages (kV).
109  GENVT_MOD:INPUT_VOLTS                                                  ao                      User input: General V/T Volts (V).      
110  GENVT_TIME:DAT                                                         waveform    1 second    General V/T array: times (ms).          
111  GENVT_VOLTS:DAT                                                        waveform    1 second    General V/T array: voltages (V).        
112  PHASE_MOD:INPUT_VOLTS                                                  waveform    1 second    User input: Phase Volts (V).            
113  PHASE:SP_NO                                                            longout                 Phase super-period number.              
114  PHASE_TIME:DAT                                                         waveform    1 second    Phase array: times (ms).                
115  PHASE_VOLTS:DAT                                                        waveform    1 second    Phase array: voltages (V).              
116  TPHASE_MOD:INPUT_DEG                                                   waveform    1 second    User input: Theta Phase Shift Degrees.  
117  TPHASE_DP:DAT                                                          waveform    1 second    Theta Phase Shift array: delta_p.       
118  TPHASE_DEG:DAT                                                         waveform    1 second    Theta Phase Shift array: degrees.       
119  TPHASE_DP:DATEXP                                                       waveform    1 second    Theta Phase Shift array: delta_p.       
120  TPHASE_DEG:DATEXP                                                      waveform    1 second    Theta Phase Shift array: degrees.       
121  TPHASE:MSK                                                             longout                 Theta timer power of 2 (k).             
122  SPHASE_MOD:INPUT_DEG                                                   waveform    1 second    User input: Synch Phase Shift Degrees.  
123  SPHASE:SP_NO                                                           longout                 Synch Phase Shift super-period number.  
124  SPHASE_DP:DAT                                                          waveform    1 second    Synch Phase Shift array: delta_p.       
125  SPHASE_DEG:DAT                                                         waveform    1 second    Synch Phase Shift array: degrees.       
126  READER:STATUS_1                                                        bo                      Crate 23 reader activity                
127  SYSTEM:LOAD_1                                                          bo                      R2RF load database channel              
128  SYSTEM:LOAD_1:HPARAM1                                                  longout                                                         
129  SYSTEM:STATUS_1                                                        longout                 Remote database status.                 
130  SYSTEM:STATUS_1:HPARAM1                                                longout                                                         
131  SYSTEM:ERROR_1                                                         longout                 System error channel.                   
132  SYSTEM:PCC_1                                                           longout                 PCC channel                             
133  C23_GEN1_STEF:DAT                                                      waveform    1 second    General STE F-module 1                  
134  C23_GEN2_STEF:DAT                                                      waveform    1 second    General STE F-module 2                  
135  C23_SCOPE1_STET:CH1_DELP                                               longout                 Scope Timer 1 CH1 Delta-P               
136  C23_SCOPE1_STET:CH2_DELP                                               longout                 Scope Timer 1 CH2 Delta-P               
137  C23_SCOPE1_STET:CH1_MS_K                                               longout                 Scope Timer 1 CH1 k                     
138  C23_SCOPE1_STET:CH2_MS_K                                               longout                 Scope Timer 1 CH2 k                     
139  C23_SCOPE1_STET:CH1_ENB                                                bo                      Scope Timer 1 CH1 Enable                
140  C23_SCOPE1_STET:CH2_ENB                                                bo                      Scope Timer 1 CH2 Enable                
141  C23_SCOPE1_STET:CH1_SST                                                bo                      Scope Timer 1 CH1 Single-Shot           
142  C23_SCOPE1_STET:CH2_SST                                                bo                      Scope Timer 1 CH2 Single-Shot           
143  C23_SCOPE1_STET:CH1_MMS                                                longout                 Scope Timer 1 CH1 m*MS                  
144  C23_SCOPE1_STET:CH2_MMS                                                longout                 Scope Timer 1 CH2 m*MS                  
145  C23_SCOPE1_STET:CH1_STA                                                longout                 Scope Timer 1 CH1 Status                
146  C23_SCOPE1_STET:CH2_STA                                                longout                 Scope Timer 1 CH2 Status                
147  C23_SCOPE2_STET:CH1_DELP                                               longout                 Scope Timer 2 CH1 Delta-P               
148  C23_SCOPE2_STET:CH2_DELP                                               longout                 Scope Timer 2 CH2 Delta-P               
149  C23_SCOPE2_STET:CH1_MS_K                                               longout                 Scope Timer 2 CH1 k                     
150  C23_SCOPE2_STET:CH2_MS_K                                               longout                 Scope Timer 2 CH2 k                     
151  C23_SCOPE2_STET:CH1_ENB                                                bo                      Scope Timer 2 CH1 Enable                
152  C23_SCOPE2_STET:CH2_ENB                                                bo                      Scope Timer 2 CH2 Enable                
153  C23_SCOPE2_STET:CH1_SST                                                bo                      Scope Timer 2 CH1 Single-Shot           
154  C23_SCOPE2_STET:CH2_SST                                                bo                      Scope Timer 2 CH2 Single-Shot           
155  C23_SCOPE2_STET:CH1_MMS                                                longout                 Scope Timer 2 CH1 m*MS                  
156  C23_SCOPE2_STET:CH2_MMS                                                longout                 Scope Timer 2 CH2 m*MS                  
157  C23_SCOPE2_STET:CH1_STA                                                longout                 Scope Timer 2 CH1 Status                
158  C23_SCOPE2_STET:CH2_STA                                                longout                 Scope Timer 2 CH2 Status                
159  C23_GEN_STET:CH1_DELP                                                  longout                 Scope Timer 3 CH1 Delta-P               
160  C23_GEN_STET:CH2_DELP                                                  longout                 Scope Timer 3 CH2 Delta-P               
161  C23_GEN_STET:CH1_MS_K                                                  longout                 Scope Timer 3 CH1 k                     
162  C23_GEN_STET:CH2_MS_K                                                  longout                 Scope Timer 3 CH2 k                     
163  C23_GEN_STET:CH1_ENB                                                   bo                      Scope Timer 3 CH1 Enable                
164  C23_GEN_STET:CH2_ENB                                                   bo                      Scope Timer 3 CH2 Enable                
165  C23_GEN_STET:CH1_SST                                                   bo                      Scope Timer 3 CH1 Single-Shot           
166  C23_GEN_STET:CH2_SST                                                   bo                      Scope Timer 3 CH2 Single-Shot           
167  C23_GEN_STET:CH1_MMS                                                   longout                 Scope Timer 3 CH1 m*MS                  
168  C23_GEN_STET:CH2_MMS                                                   longout                 Scope Timer 3 CH2 m*MS                  
169  C23_GEN_STET:CH1_STA                                                   longout                 Scope Timer 3 CH1 Status                
170  C23_GEN_STET:CH2_STA                                                   longout                 Scope Timer 3 CH2 Status                
171  C28_GAPV_NORM_STEF:DAT                                                 waveform    1 second    Gap Volts Normal STE F-module.          
172  C28_GAPV_EXPT_STEF:DAT                                                 waveform    1 second    Gap Volts Experimental.                 
173  C28_CAVTUNE_MULT_STEF:DAT                                              waveform    1 second    F +/- 10V Crate 28 Cavtune Mult.        
174  C28_ANTIPHASE_STEF:DAT                                                 waveform    1 second    F +/- 10V Crate 28 Antiphase.           
175  C28_THETA_NORM_STEF:DAT                                                waveform    1 second    F +/- 10V Crate 28 Theta Norm.          
176  C28_THETA_EXPT_STEF:DAT                                                waveform    1 second    F +/- 10V Crate 28 Theta Expt.          
177  C28_GAPV_STET:CH1_DELP                                                 longout                 Gap Volts Switch CH1 Delta-P.           
178  C28_GAPV_STET:CH2_DELP                                                 longout                 Gap Volts Switch CH2 Delta-P.           
179  C28_GAPV_STET:CH1_MS_K                                                 longout                 Gap Volts Switch CH1 k.                 
180  C28_GAPV_STET:CH2_MS_K                                                 longout                 Gap Volts Switch CH2 k.                 
181  C28_GAPV_STET:CH1_ENB                                                  bo                      Gap Volts Switch CH1 Enable             
182  C28_GAPV_STET:CH2_ENB                                                  bo                      Gap Volts Switch CH2 Enable             
183  C28_GAPV_STET:CH1_SST                                                  bo                      Gap Volts Switch CH1 Single_shot        
184  C28_GAPV_STET:CH2_SST                                                  bo                      Gap Volts Switch CH2 Single-shot        
185  C28_GAPV_STET:CH1_MMS                                                  longout                 Gap Volts Switch CH1 m*MS               
186  C28_GAPV_STET:CH2_MMS                                                  longout                 Gap Volts Switch CH2 m*MS               
187  C28_GAPV_STET:CH1_STA                                                  longout                 Gap Volts Switch CH1 Status             
188  C28_GAPV_STET:CH2_STA                                                  longout                 Gap Volts Switch CH2 Status             
189  READER:STATUS_2                                                        bo                      Crate 29 reader activity                
190  SYSTEM:LOAD_2                                                          bo                      R2RF load database channel              
191  SYSTEM:LOAD_2:HPARAM1                                                  longout                                                         
192  SYSTEM:STATUS_2                                                        longout                 Remote database status                  
193  SYSTEM:STATUS_2:HPARAM1                                                longout                                                         
194  SYSTEM:ERROR_2                                                         longout                 System error channel                    
195  SYSTEM:PCC_2                                                           longout                 PCC Channel                             
196  C29_CAVTUNE_2RFS4_STEF:DAT                                             waveform    1 second    2H Cavity Tune SP4 STE F-module         
197  C29_CAVTUNE_2RFS5_STEF:DAT                                             waveform    1 second    2H Cavity Tune SP5 STE F-module         
198  C29_CAVTUNE_2RFS6_STEF:DAT                                             waveform    1 second    2H Cavity Tune SP6 STE F-module         
199  C29_CAVTUNE_2RFS8_STEF:DAT                                             waveform    1 second    2H Cavity Tune SP8 STE F-module         
200  C29_CAVTUNE_2RF_STET:CH1_DELP                                          longout                 2H Cavity Tune Timer CH1 Delta-P        
201  C29_CAVTUNE_2RF_STET:CH2_DELP                                          longout                 2H Cavity Tune Timer CH2 Delta-P        
202  C29_CAVTUNE_2RF_STET:CH1_MS_K                                          longout                 2H Cavity Tune Timer CH1 k              
203  C29_CAVTUNE_2RF_STET:CH2_MS_K                                          longout                 2H Cavity Tune Timer CH2 k              
204  C29_CAVTUNE_2RF_STET:CH1_ENB                                           bo                      2H Cavity Tune Timer CH1 Enable         
205  C29_CAVTUNE_2RF_STET:CH2_ENB                                           bo                      2H Cavity Tune Timer CH2 Enable         
206  C29_CAVTUNE_2RF_STET:CH1_SST                                           bo                      2H Cavity Tune Timer CH1 Single-Shot    
207  C29_CAVTUNE_2RF_STET:CH2_SST                                           bo                      2H Cavity Tune Timer CH2 Single-Shot    
208  C29_CAVTUNE_2RF_STET:CH1_MMS                                           longout                 2H Cavity Tune Timer CH1 m*MS           
209  C29_CAVTUNE_2RF_STET:CH2_MMS                                           longout                 2H Cavity Tune Timer CH2 m*MS           
210  C29_CAVTUNE_2RF_STET:CH1_STA                                           longout                 2H Cavity Tune Timer CH1 Status.        
211  C29_CAVTUNE_2RF_STET:CH2_STA                                           longout                 2H Cavity Tune Timer CH2 Status.        
212  C29_STEW_P1:DAT                                                        waveform    1 second    Type-W Port 1.                          
213  C29_STEW_P2:DAT                                                        waveform    1 second    Type-W Port 2.                          
214  READER:STATUS_3                                                        bo                      Crate 30 reader activity                
215  SYSTEM:LOAD_3                                                          bo                      R2RF load database channel              
216  SYSTEM:LOAD_3:HPARAM1                                                  longout                                                         
217  SYSTEM:STATUS_3                                                        longout                 Remote database status                  
218  SYSTEM:STATUS_3:HPARAM1                                                longout                                                         
219  SYSTEM:ERROR_3                                                         longout                 System error channel                    
220  SYSTEM:PCC_3                                                           longout                 PCC channel                             
221  C30_CAVTUNE_OT_2RFS4_STEF:DAT                                          waveform    1 second    Cavity Tuning Off Tune SP4 STE F-module 
222  C30_CAVTUNE_OT_2RFS5_STEF:DAT                                          waveform    1 second    Cavity Tuning Off Tune SP5 STE F-module 
223  C30_CAVTUNE_OT_2RFS6_STEF:DAT                                          waveform    1 second    Cavity Tuning Off Tune SP6 STE F-module 
224  C30_CAVTUNE_OT_2RFS8_STEF:DAT                                          waveform    1 second    Cavity Tuning Off Tune SP8 STE F-module 
225  C30_SCOPE_STET:CH1_DELP                                                longout                 Scope Timer 1 CH1 Delta-P               
226  C30_SCOPE_STET:CH2_DELP                                                longout                 Scope Timer 1 CH2 Delta-P               
227  C30_SCOPE_STET:CH1_MS_K                                                longout                 Scope Timer 1 CH1 k                     
228  C30_SCOPE_STET:CH2_MS_K                                                longout                 Scope Timer 1 CH2 k                     
229  C30_SCOPE_STET:CH1_ENB                                                 bo                      Scope Timer 1 CH1 Enable                
230  C30_SCOPE_STET:CH2_ENB                                                 bo                      Scope Timer 1 CH2 Enable                
231  C30_SCOPE_STET:CH1_SST                                                 bo                      Scope Timer 1 CH1 Single-Shot           
232  C30_SCOPE_STET:CH2_SST                                                 bo                      Scope Timer 1 CH2 Single-Shot           
233  C30_SCOPE_STET:CH1_MMS                                                 longout                 Scope Timer 1 CH1 m*MS                  
234  C30_SCOPE_STET:CH2_MMS                                                 longout                 Scope Timer 1 CH2 m*MS                  
235  C30_SCOPE_STET:CH1_STA                                                 longout                 Scope Timer 1 CH1 Status                
236  C30_SCOPE_STET:CH2_STA                                                 longout                 Scope Timer 1 CH2 Status                
237  C30_GEN_STET:CH1_DELP                                                  longout                 General Timer 1 CH1 Delta-P             
238  C30_GEN_STET:CH2_DELP                                                  longout                 General Timer 1 CH2 Delta-P             
239  C30_GEN_STET:CH1_MS_K                                                  longout                 General Timer 1 CH1 k                   
240  C30_GEN_STET:CH2_MS_K                                                  longout                 General Timer 1 CH2 k                   
241  C30_GEN_STET:CH1_ENB                                                   bo                      General Timer 1 CH1 Enable              
242  C30_GEN_STET:CH2_ENB                                                   bo                      General Timer 1 CH2 Enable              
243  C30_GEN_STET:CH1_SST                                                   bo                      General Timer 1 CH1 Single-Shot         
244  C30_GEN_STET:CH2_SST                                                   bo                      General Timer 1 CH2 Single-Shot         
245  C30_GEN_STET:CH1_MMS                                                   longout                 General Timer 1 CH1 m*MS                
246  C30_GEN_STET:CH2_MMS                                                   longout                 General Timer 1 CH2 m*MS                
247  C30_GEN_STET:CH1_STA                                                   longout                 General Timer 1 CH1 Status              
248  C30_GEN_STET:CH2_STA                                                   longout                 General Timer 1 CH2 Status              
249  READER:STATUS_4                                                        bo                      Crate 32 reader activity.               
250  SYSTEM:LOAD_4                                                          bo                      R2RF Crate 32 load database channel.    
251  SYSTEM:LOAD_4:HPARAM1                                                  longout                                                         
252  SYSTEM:STATUS_4                                                        longout                 Remote database status.                 
253  SYSTEM:STATUS_4:HPARAM1                                                longout                                                         
254  SYSTEM:ERROR_4                                                         longout                 System error channel.                   
255  SYSTEM:PCC_4                                                           longout                 PCC channel                             
256  C32_BCGAIN_2RFS4_STEF:DAT                                              waveform    1 second    Beam Comp. Gain SP4 STE F-module        
257  C32_BCGAIN_2RFS5_STEF:DAT                                              waveform    1 second    Beam Comp. Gain SP5 STE F-module        
258  C32_BCGAIN_2RFS6_STEF:DAT                                              waveform    1 second    Beam Comp. Gain SP6 STE F-module        
259  C32_BCGAIN_2RFS8_STEF:DAT                                              waveform    1 second    Beam Comp. Gain SP8 STE F-module        
260  READER:STATUS_5                                                        bo                      Crate 37 reader activity.               
261  SYSTEM:LOAD_5                                                          bo                      R2RF Load database channels.            
262  SYSTEM:LOAD_5:HPARAM1                                                  longout                                                         
263  SYSTEM:STATUS_5                                                        longout                 Remote database status.                 
264  SYSTEM:STATUS_5:HPARAM1                                                longout                                                         
265  SYSTEM:ERROR_5                                                         longout                 System error channel.                   
266  SYSTEM:PCC_5                                                           longout                 PCC channel                             
267  C37_GEN1_STEF:DAT                                                      waveform    1 second    2H Theta Phase Shift STE F-module       
268  C37_GEN2_STEF:DAT                                                      waveform    1 second    Synchrotron Phase Shift SP4 STE F-module
269  C37_GEN3_STEF:DAT                                                      waveform    1 second    Synchrotron Phase Shift SP5 STE F-module
270  C37_GEN4_STEF:DAT                                                      waveform    1 second    Synchrotron Phase Shift SP6 STE F-module
271  C37_GEN5_STEF:DAT                                                      waveform    1 second    Synchrotron Phase Shift SP8 STE F-module
272  C37_GEN6_STEF:DAT                                                      waveform    1 second    General Purpose STE F-module 1          
273  C37_GEN7_STEF:DAT                                                      waveform    1 second    General Purpose STE F-module 2          
274  READER:STATUS_6                                                        bo                      Crate 36 reader activity.               
275  SYSTEM:LOAD_6                                                          bo                      Crate 36 load database channels.        
276  SYSTEM:LOAD_6:HPARAM1                                                  longout                                                         
277  SYSTEM:STATUS_6                                                        longout                 Remote database status.                 
278  SYSTEM:STATUS_6:HPARAM1                                                longout                                                         
279  SYSTEM:ERROR_6                                                         longout                 System error channel.                   
280  SYSTEM:PCC_6                                                           longout                 PCC channel                             
281  C36_BCDELAY_2RFS4_STEW:DAT                                             waveform    1 second    Beam Comp. Delay SP4 STE W-module.      
282  C36_BCDELAY_2RFS5_STEW:DAT                                             waveform    1 second    Beam Comp. Delay SP5 STE W-module.      
283  C36_BCDELAY_2RFS6_STEW:DAT                                             waveform    1 second    Beam Comp. Delay SP6 STE W-module.      
284  C36_BCDELAY_2RFS8_STEW:DAT                                             waveform    1 second    Beam Comp. Delay SP8 STE W-module.      
285  C36_SPARE1_CH1_STEW:DAT                                                waveform    1 second    STE W-module chan 1.                    
286  C36_SPARE1_CH2_STEW:DAT                                                waveform    1 second    STE W-module chan 2.                    