 
  Database(P): R53WATER
  IP Address: 172.16.88.15
 
NUM  PV Name                                                       Address  Type        Scan        DESC                                    
  1  REGISTER:00000                                                0        longin      1 second    Status register D00000                  
  2  00000:MULTIPLE                                                         dfanout                 redirection channel reg 00002           
  3  00000_A:MULTIPLE                                                       dfanout                 Redirection channel reg 00000 LS BYTE   
  4  00000_B:MULTIPLE                                                       dfanout                 Redirection channel reg 00000 MS BYTE   
  5  HEART:PULSE_C                                                          sub                                                             
  6  HEART:PULSE                                                            bi                                                              
  7  SYSTEM:ALARM_C                                                         sub                                                             
  8  SYSTEM:ALARM                                                           bi                                                              