 
  Database(P): TCH4ALARM
  IP Address: None
 
NUM  PV Name                                                       Address  Type        Scan        DESC                                    
  1  ANOMALY                                                                bi          1 second    TGT1 - METHANE MODERATOR - temperature instability developing