 
  Database(P): R1RF
  IP Address: None
 
NUM  PV Name                                                       Address  Type        Scan        DESC                                    
  1  DYN_GRAPH:X_AXIS                                                       waveform    1 second                                            
  2  DYN_GRAPH:X_AXIS_DP                                                    waveform    1 second                                            
  3  DYN_GRAPH:Y_AXIS                                                       waveform    1 second                                            
  4  DYN_DISPLAY_GRAPH:PIP                                                  stringout               Dynamic graph PIP control channel.      
  5  MANLOAD:TXT                                                            stringout               Name of channels to be loaded.          
  6  MSG_CHAN:TXT                                                           stringout               Display general message.                
  7  MSG_CHAN:SET_TXT                                                       stringout               Display function (FID) currently set.   
  8  FGEN:TXT                                                               stringout               Designated function generator.          
  9  FUNC_VALS:CAP_TXT                                                      stringout               Caption for function values screen.     
 10  MENU1:TXT                                                              stringout               Status text on menu 1.                  
 11  ERROR:TXT                                                              stringout               Error/advice messages.                  
 12  ARRAY_ELEMENT:X1                                                       ao                      1st x coordinate                        
 13  ARRAY_ELEMENT:X2                                                       ao                      2nd x coordinate                        
 14  ARRAY_ELEMENT:X3                                                       ao                      3rd x coordinate                        
 15  ARRAY_ELEMENT:X4                                                       ao                      4th x coordinate                        
 16  ARRAY_ELEMENT:X5                                                       ao                      5th x coordinate                        
 17  ARRAY_ELEMENT:X6                                                       ao                      6th x coordinate                        
 18  ARRAY_ELEMENT:X7                                                       ao                      7th x coordinate                        
 19  ARRAY_ELEMENT:X8                                                       ao                      8th x coordinate                        
 20  ARRAY_ELEMENT:X9                                                       ao                      9th x coordinate                        
 21  ARRAY_ELEMENT:X10                                                      ao                      10th x coordinate                       
 22  ARRAY_ELEMENT:X11                                                      ao                      11th x coordinate                       
 23  ARRAY_ELEMENT:X12                                                      ao                      12th x coordinate                       
 24  ARRAY_ELEMENT:X13                                                      ao                      13th x coordinate                       
 25  ARRAY_ELEMENT:X14                                                      ao                      14th x coordinate                       
 26  ARRAY_ELEMENT:X15                                                      ao                      15th x coordinate                       
 27  ARRAY_ELEMENT:X16                                                      ao                      16th x coordinate                       
 28  ARRAY_ELEMENT:X17                                                      ao                      17th x coordinate                       
 29  ARRAY_ELEMENT:X18                                                      ao                      18th x coordinate                       
 30  ARRAY_ELEMENT:X19                                                      ao                      19th x coordinate                       
 31  ARRAY_ELEMENT:X20                                                      ao                      20th x coordinate                       
 32  ARRAY_ELEMENT:Y1                                                       ao                      1st y coordinate                        
 33  ARRAY_ELEMENT:Y2                                                       ao                      2nd y coordinate                        
 34  ARRAY_ELEMENT:Y3                                                       ao                      3rd y coordinate                        
 35  ARRAY_ELEMENT:Y4                                                       ao                      4th y coordinate                        
 36  ARRAY_ELEMENT:Y5                                                       ao                      5th y coordinate                        
 37  ARRAY_ELEMENT:Y6                                                       ao                      6th y coordinate                        
 38  ARRAY_ELEMENT:Y7                                                       ao                      7th y coordinate                        
 39  ARRAY_ELEMENT:Y8                                                       ao                      8th y coordinate                        
 40  ARRAY_ELEMENT:Y9                                                       ao                      9th y coordinate                        
 41  ARRAY_ELEMENT:Y10                                                      ao                      10th y coordinate                       
 42  ARRAY_ELEMENT:Y11                                                      ao                      11th y coordinate                       
 43  ARRAY_ELEMENT:Y12                                                      ao                      12th y coordinate                       
 44  ARRAY_ELEMENT:Y13                                                      ao                      13th y coordinate                       
 45  ARRAY_ELEMENT:Y14                                                      ao                      14th y coordinate                       
 46  ARRAY_ELEMENT:Y15                                                      ao                      15th y coordinate                       
 47  ARRAY_ELEMENT:Y16                                                      ao                      16th y coordinate                       
 48  ARRAY_ELEMENT:Y17                                                      ao                      17th y coordinate                       
 49  ARRAY_ELEMENT:Y18                                                      ao                      18th y coordinate                       
 50  ARRAY_ELEMENT:Y19                                                      ao                      19th y coordinate                       
 51  ARRAY_ELEMENT:Y20                                                      ao                      20th y coordinate                       
 52  FUNC_ID:NUM                                                            longout                 Function identification number.         
 53  FUNC:RANGE                                                             longout                 Function range eg +-10 V.               
 54  DISPLAY:DAT                                                            waveform    1 second                                            
 55  DISPLAY_W:DAT                                                          waveform    1 second                                            
 56  CONVERT:BEF_FLAG                                                       longout                 Input flag - 1 B field, 2 energy, 3 frequency.
 57  CONVERT:BFIELD                                                         ao                      B field output (Tesla).                 
 58  CONVERT:EN                                                             ao                      Energy output (MeV).                    
 59  CONVERT:FREQ                                                           ao                      Frequency output (MHz).                 
 60  CONVERT:IP_BFIELD                                                      ao                      B field input (Tesla).                  
 61  CONVERT:IP_EN                                                          ao                      Energy input (MeV).                     
 62  CONVERT:IP_FREQ                                                        ao                      Frequency input (MHz).                  
 63  CONV_BEF:FREQ                                                          ao                      Frequency (MHz).                        
 64  DISPLAY_SMALL:PIP                                                      stringout               Small PIP control channel.              
 65  DISPLAY_LARGE:PIP                                                      stringout               Large PIP control channel.              
 66  DISPLAY_GAPVALS_GRAPH:PIP                                              stringout               Gap values Graph PIP control channel.   
 67  MENU1:PIP                                                              stringout               Menu 1 PIP control channel.             
 68  MENU2:PIP                                                              stringout               Menu 2 PIP control channel.             
 69  LARGE:PIP                                                              stringout               Large PIP control channel.              
 70  LOAD:FLAG                                                              longout                 Confirm LOAD FGEN function.             
 71  LOAD_FGEN:MIMIC                                                        longout                 Load MIMIC function generator.          
 72  MOD_INPUT:INT1                                                         longout                 Integer value input by user.            
 73  MOD_INPUT:INT2                                                         longout                 Integer value input by user.            
 74  MOD_INPUT:REAL                                                         ao                      Real value input by user.               
 75  MOD_INPUT:VARG                                                         longout                 Function modification type.             
 76  MOD_OPS:DPFLAG                                                         longout                 Move 10 delta-p flag.                   
 77  MOD_OPS:LFL                                                            longout                 Lower function limit (x0).              
 78  MOD_OPS:NUM_MOVE                                                       longout                 Number of moves made.                   
 79  MOD_OPS:OLD_VOLTS                                                      ao                      Last voltage input by user.             
 80  MOD_OPS:POINT                                                          longout                 Point to be modified.                   
 81  MOD_OPS:RFLAG                                                          longout                 Repeat flag.                            
 82  MOD_OPS:SFLAG                                                          longout                 Subtract flag.                          
 83  MOD_OPS:UFL                                                            longout                 Upper function limit (x1).              
 84  MOD_OPS:VARG                                                           longout                 Operation identifier.                   
 85  MOD_OPS:VOLTS                                                          ao                      Voltage input by user.                  
 86  NE_MOD:FLAG                                                            longout                 Normal/Exptl function flag.             
 87  VT_MOD:VARG                                                            longout                 Modification case.                      
 88  VT_MOD:ELEMENTS                                                        longout                 Number of elements in function.         
 89  VT_MOD:INPUT_TIME                                                      ao                      Time input by user.                     
 90  SAVEFILE:NAME                                                          stringout               Data file name                          
 91  DISPLAY_AFLAW:XDAT                                                     waveform    1 second    Graph x-axis: Frequency (MHz).          
 92  DISPLAY_AFLAW:YDAT                                                     waveform    1 second    Graph y-axis: B field (Tesla).          
 93  AFLAW_Z1:DAT1                                                          waveform    1 second    Part 1 of array z1().                   
 94  AFLAW_Z1:DAT2                                                          waveform    1 second    Part 2 of array z1().                   
 95  AFLAW_Z1:DAT3                                                          waveform    1 second    Part 3 of array z1.                     
 96  AFLAW_Z1:DAT4                                                          waveform    1 second    Part 4 of array z1().                   
 97  AFLAW_Z2:DAT1                                                          waveform    1 second    Part 1 of array z2().                   
 98  AFLAW_Z2:DAT2                                                          waveform    1 second    Part 2 of array z2().                   
 99  AFLAW_Z2:DAT3                                                          waveform    1 second    Part 3 of array z2.                     
100  AFLAW_Z2:DAT4                                                          waveform    1 second    Part 4 of array z2().                   
101  AFLAW:EF_FLAG                                                          longout                 Input flag: 1 = energy, 2 = frequency.  
102  AFLAW:INPUT_EN                                                         ao                      User input: Asym. Freq. Law input energy (MeV).
103  AFLAW:EXTRACT_EN                                                       ao                      User input: Asym. Freq. Law extract energy (MeV).
104  AFLAW:INPUT_FREQ                                                       ao                      User input: Asym. Freq. Law frequency (MHz).
105  AFLAW:LAST_DATE                                                        stringout               Display last date.                      
106  AFLAW:LAST_TIME                                                        stringout               Display last time.                      
107  AFLAW:LAST_EN                                                          stringout               Display last energy.                    
108  AFLAW:LAST_FREQ                                                        stringout               Display last frequency.                 
109  BASICL:LAST_GAIN                                                       stringout               Display last gain.                      
110  BASICL_INPUT:NEW_GAIN                                                  ao                      User input: Basic Law gain.             
111  BASICL_INPUT:LAST_GAIN                                                 ao                      User input: Basic Law gain.             
112  BDOT_INPUT:OFFSET                                                      ao                      User input: BDot offset.                
113  BDOT_INPUT:VOLTS                                                       ao                      User input: BDot amplitude.             
114  BDOT:AC_TRIP                                                           bi          1 second    AC trip on BDOT / FGEN                  
115  BDOT:BDOT_SWITCH                                                       bo                      Indicates the desired state of the BDOT / FGEN
116  BDOT:BDOT_STATUS                                                       bo                      The current state of the BDOT / FGEN hardware
117  BDOT:BDOT_SWITCH_SOFT                                                  longout                 The status of the BDOT / FGEN hardware vs commanded state
118  BCDEL:SP_NO                                                            longout                 Beam Comp. Delay super-period number.   
119  BCDEL_MOD:INPUT_VOLTS                                                  ao                      User input: Beam Comp. Delay Volts (V). 
120  BCDEL_TIME:DAT                                                         waveform    1 second    Beam Comp. Delay array: times (ms).     
121  BCDEL_VOLTS:DAT                                                        waveform    1 second    Beam Comp. Delay array: voltages (V).   
122  BCGAIN:PNML_DEG                                                        longout                 Beam Comp. Gain degree of polynomial.   
123  BCGAIN:SP_NO                                                           longout                 Beam Comp. Gain super-period number.    
124  BCGAIN_MOD:INPUT_VOLTS                                                 ao                      User input: Beam Comp. Gain Volts (V).  
125  BCGAIN_TIME:DAT                                                        waveform    1 second    Beam Comp. Gain array: times (ms).      
126  BCGAIN_VOLTS:DAT                                                       waveform    1 second    Beam Comp. Gain array: voltages (V).    
127  BLLS_WAIT:FLAG                                                         longout                 Wait 10 s before loading flag.          
128  GAPV_MOD:INPUT_TIME                                                    ao                      User input: Gap Volts time (ms).        
129  GAPV_MOD:INPUT_VOLTS                                                   ao                      User input: Gap Volts (kV).             
130  GAPV_MOD:INPUT_DCVOLTS                                                 ao                      User input: DC level (kV).              
131  GAPV:MSK                                                               longout                 Gap Volts power of 2 (k).               
132  GAPV_TIME:DAT                                                          waveform    1 second    Gap Volts array: times (ms).            
133  GAPVN_TIME:DAT                                                         waveform    1 second    Gap Volts Normal function array: times (ms).
134  GAPV_VOLTS:DAT                                                         waveform    1 second    Gap Volts array: voltages (kV).         
135  GAPVN_VOLTS:DAT                                                        waveform    1 second    Gap Volts Normal function array: voltages (kV).
136  GENVT_MOD:INPUT_VOLTS                                                  ao                      User input: General V/T Volts (V).      
137  GENVT_TIME:DAT                                                         waveform    1 second    General V/T array: times (ms).          
138  GENVT_VOLTS:DAT                                                        waveform    1 second    General V/T array: voltages (V).        
139  GENVT:ZERO_FLAG                                                        longout                 Zero function flag.                     
140  PHASE_VOLTS:DAT                                                        waveform    1 second    Phase array: voltages (V).              
141  PHASE:MSK                                                              longout                 CPHS user ip & reference k from GAPV.   
142  PHASE:IP_RFOFF                                                         ao                      Chopper Phase Switch RF OFF time (ms).  
143  RADDEM_MOD:INPUT_VOLTS                                                 ao                      User input: Radial Demand Volts (V).    
144  RADDEM:MSK                                                             longout                 Radial Demand power of 2 (k).           
145  RADDEM_TIME:DAT                                                        waveform    1 second    Radial Demand array: times (ms).        
146  RADDEM_VOLTS:DAT                                                       waveform    1 second    Radial Demand array: voltages (V).      
147  SINE_INPUT:CYCLES                                                      ao                      User input: Sine no. of cycles.         
148  SINE_INPUT:VOLTS                                                       ao                      User input: Sine amplitude.             
149  FLTRIM:BEST_TEFF                                                       ao                      Best of 9 Trapping efficiencies.        
150  FLTRIM:BEST_DC                                                         ao                      DC level producing best Trapping efficiency.
151  FLTRIM:CURR_TEFF                                                       ao                      Current Trapping efficiency.            
152  FLTRIM:CURR_DC                                                         ao                      Current DC level.                       
153  FLTRIM:DC_CHANGE                                                       ao                      Amount to change DC level - input by user.
154  FLTRIM:DC_FLAG                                                         longout                 Check DC level flag.                    
155  FLTRIM:DC_LEVELS                                                       waveform    1 second    Array of DC levels.                     
156  FLTRIM:DC_TXT                                                          stringout               DC level text for user.                 
157  FLTRIM:MSK                                                             longout                 Trim function power of 2 (k).           
158  FLTRIM:TRAP_EFFICS                                                     waveform    1 second    Array of Trapping Efficiencies.         
159  FLTRIM:WARN_TXT                                                        stringout               Message chan for DC level warnings.     
160  VFSINE_INPUT:CYCLES                                                    ao                      User input: VF Sine no. of cycles.      
161  VFSINE_INPUT:VOLTS                                                     ao                      User input: VF Sine amplitude.          
162  CPS_READER:STATUS_3                                                    bi          1 second    Tell-tale channel for reader activity   
163  SYSTEM:INFO_3                                                          bo                      CPS System channel                      
164  CPS3:TYPES_1:INIT                                                      longout                 Initialise Type-S card                  
165  CPS3:TYPES_1:INIT:HPARAM1                                              longout                                                         
166  RDPROF:RPM_SCOPE:SELECT                                                longout                 RPM Scope signal select                 
167  RFMOD_10:DAT                                                           waveform    1 second    Mimic F-module (Diag. Rm)               
168  EXTPULSE:PL_SERVO_FG:LEVEL_MS                                          longout                 Pulse Length Servo F - Mod              
169  EXTPULSE:PL_SERVO_FG:LEVEL_MS2                                         longout                 Pulse Length Servo F - Mod              
170  RFMOD_7:DAT                                                            waveform    1 second    RF Frequency Law simulated B dot F-module.
171  RFMOD_17E:DAT                                                          waveform    1 second    Trim Experimental F-module.             
172  RFMOD_17:DAT                                                           waveform    1 second    Trim Normal F-module.                   
173  RFMOD_36:DAT                                                           waveform    1 second    Gap Volts Normal F-module.              
174  RFMOD_36E:DAT                                                          waveform    1 second    Gap Volts Experimental F-module.        
175  RFMOD_37:DAT                                                           waveform    1 second    Phase Normal F-module.                  
176  RFMOD_37E:DAT                                                          waveform    1 second    Phase Experimental F-module.            
177  RFMOD_38:DAT                                                           waveform    1 second    Radial Demand Normal F-module.          
178  RFMOD_38E:DAT                                                          waveform    1 second    Radial Demand Experimental F-module.    
179  RFMOD_1:DAT                                                            waveform    1 second    Beam Comp. Delay SP 2 W-module.         
180  RFMOD_2:DAT                                                            waveform    1 second    Beam Comp. Delay SP 3 W-module.         
181  RFMOD_3:DAT                                                            waveform    1 second    Beam Comp. Delay SP 4 W-module.         
182  RFMOD_4:DAT                                                            waveform    1 second    Beam Comp. Delay SP 7 W-module.         
183  RFMOD_5:DAT                                                            waveform    1 second    Beam Comp. Delay SP 8 W-module.         
184  RFMOD_6:DAT                                                            waveform    1 second    Beam Comp. Delay SP 9 W-module.         
185  TIMER_55:CH1_DELP                                                      longout                 T-Channel 1 Delta P                     
186  TIMER_55:CH1_MS_K                                                      longout                 T-Channel 1 MS/k                        
187  TIMER_55:CH1_ENB                                                       bo                      T-Channel 1 enable                      
188  TIMER_55:CH1_MMS                                                       longout                 T-Channel 1 MMS                         
189  TIMER_55:CH1_STA                                                       longin      1 second    TIMER 55 chan 1 status: Scope trigger   
190  TIMER_55:CH2_DELP                                                      longout                 T-Channel 2 Delta P                     
191  TIMER_55:CH2_MS_K                                                      longout                 T-Channel 2 MS/k                        
192  TIMER_55:CH2_ENB                                                       bo                      T-Channel 2 enable                      
193  TIMER_55:CH2_MMS                                                       longout                 T-Channel 2 MMS                         
194  TIMER_55:CH2_STA                                                       longin      1 second    TIMER 55 chan 2 status: Scope trigger   
195  TIMER_55:CH3_DELP                                                      longout                 T-Channel 3 Delta P                     
196  TIMER_55:CH3_MS_K                                                      longout                 T-Channel 3 MS/k                        
197  TIMER_55:CH3_ENB                                                       bo                      T-Channel 3 enable                      
198  TIMER_55:CH3_MMS                                                       longout                 T-Channel 3 MMS                         
199  TIMER_55:CH3_STA                                                       longin      1 second    TIMER 55 chan 3 status: Scope trigger   
200  TIMER_55:CH4_DELP                                                      longout                 T-Channel 4 Delta P                     
201  TIMER_55:CH4_MS_K                                                      longout                 T-Channel 4 MS/k                        
202  TIMER_55:CH4_ENB                                                       bo                      T-Channel 4 enable                      
203  TIMER_55:CH4_MMS                                                       longout                 T-Channel 4 MMS                         
204  TIMER_55:CH4_STA                                                       longin      1 second    TIMER 55 chan 4 status: Scope trigger   
205  TIMER_56:CH1_DELP                                                      longout                 T-Channel 1 Delta P                     
206  TIMER_56:CH1_MS_K                                                      longout                 T-Channel 1 MS/k                        
207  TIMER_56:CH1_ENB                                                       bo                      T-Channel 1 enable                      
208  TIMER_56:CH1_MMS                                                       longout                 T-Channel 1 MMS                         
209  TIMER_56:CH1_STA                                                       longin      1 second    TIMER 56 chan 1 status: Scope trigger   
210  TIMER_56:CH2_DELP                                                      longout                 T-Channel 2 Delta P                     
211  TIMER_56:CH2_MS_K                                                      longout                 T-Channel 2 MS/k                        
212  TIMER_56:CH2_ENB                                                       bo                      T-Channel 2 enable                      
213  TIMER_56:CH2_MMS                                                       longout                 T-Channel 2 MMS                         
214  TIMER_56:CH2_STA                                                       longin      1 second    TIMER 56 chan 2 status: Scope trigger   
215  TIMER_56:CH3_DELP                                                      longout                 T-Channel 3 Delta P                     
216  TIMER_56:CH3_MS_K                                                      longout                 T-Channel 3 MS/k                        
217  TIMER_56:CH3_ENB                                                       bo                      T-Channel 3 enable                      
218  TIMER_56:CH3_MMS                                                       longout                 T-Channel 3 MMS                         
219  TIMER_56:CH3_STA                                                       longin      1 second    TIMER 56 chan 3 status: Scope trigger   
220  TIMER_56:CH4_DELP                                                      longout                 T-Channel 4 Delta P                     
221  TIMER_56:CH4_MS_K                                                      longout                 T-Channel 4 MS/k                        
222  TIMER_56:CH4_ENB                                                       bo                      T-Channel 4 enable                      
223  TIMER_56:CH4_MMS                                                       longout                 T-Channel 4 MMS                         
224  TIMER_56:CH4_STA                                                       longin      1 second    TIMER 56 chan 4 status: Scope trigger   
225  TIMER_46:CH1_DELP                                                      longout                 T-Channel 1 Delta P                     
226  TIMER_46:CH1_MS_K                                                      longout                 T-Channel 1 MS/k                        
227  TIMER_46:CH1_ENB                                                       bo                      T-Channel 1 enable                      
228  TIMER_46:CH1_MMS                                                       longout                 T-Channel 1 MMS                         
229  TIMER_46:CH1_STA                                                       longin      1 second    TIMER 46 chan 1 status: RF Radial Demand func exptl
230  TIMER_46:CH2_DELP                                                      longout                 T-Channel 2 Delta P                     
231  TIMER_46:CH2_MS_K                                                      longout                 T-Channel 2 MS/k                        
232  TIMER_46:CH2_ENB                                                       bo                      T-Channel 2 enable                      
233  TIMER_46:CH2_MMS                                                       longout                 T-Channel 2 MMS                         
234  TIMER_46:CH2_STA                                                       longin      1 second    TIMER 46 chan 2 status: RF Radial Demand func norm
235  TIMER_46:CH3_DELP                                                      longout                 T-Channel 3 Delta P                     
236  TIMER_46:CH3_MS_K                                                      longout                 T-Channel 3 MS/k                        
237  TIMER_46:CH3_ENB                                                       bo                      T-Channel 3 enable                      
238  TIMER_46:CH3_MMS                                                       longout                 T-Channel 3 MMS                         
239  TIMER_46:CH3_STA                                                       longin      1 second    TIMER 46 chan 3 status: Injector Pulse Servo Ã¢ÂÂ dP trigger
240  TIMER_46:CH4_DELP                                                      longout                 T-Channel 4 Delta P                     
241  TIMER_46:CH4_MS_K                                                      longout                 T-Channel 4 MS/k                        
242  TIMER_46:CH4_ENB                                                       bo                      T-Channel 4 enable                      
243  TIMER_46:CH4_MMS                                                       longout                 T-Channel 4 MMS                         
244  TIMER_46:CH4_STA                                                       longin      1 second    TIMER 46 chan 4 status: spare           
245  SYSTEM:LOAD:HPARAM1                                                    longout                                                         
246  SYSTEM:STATUS                                                          longout                 Remote database status                  
247  SYSTEM:STATUS:HPARAM1                                                  longout                                                         
248  SYSTEM:ERROR                                                           longout                 System error channel                    
249  SYSTEM:PCC                                                             longout                 PCC Channel                             
250  C24_CAVTUNE_1RFS2_STEF:DAT                                             waveform    1 second    Fund. Cavity Tune SP2 STE F-module      
251  C24_CAVTUNE_1RFS3_STEF:DAT                                             waveform    1 second    Fund. Cavity Tune SP3 STE F-module      
252  C24_CAVTUNE_1RFS4_STEF:DAT                                             waveform    1 second    Fund. Cavity Tune SP4 STE F-module      
253  C24_CAVTUNE_1RFS7_STEF:DAT                                             waveform    1 second    Fund. Cavity Tune SP7 STE F-module      
254  C24_CAVTUNE_1RFS8_STEF:DAT                                             waveform    1 second    Fund. Cavity Tune SP8 STE F-module      
255  C24_CAVTUNE_1RFS9_STEF:DAT                                             waveform    1 second    Fund. Cavity Tune SP9 STE F-module      
256  C24_CAVTUNE_1RF_STET:CH1_DELP                                          longout                 Fund. Cavity Tune Timer CH1 Delta-P     
257  C24_CAVTUNE_1RF_STET:CH2_DELP                                          longout                 Fund. Cavity Tune Timer CH2 Delta-P     
258  C24_CAVTUNE_1RF_STET:CH1_MS_K                                          longout                 Fund. Cavity Tune Timer CH1 k           
259  C24_CAVTUNE_1RF_STET:CH2_MS_K                                          longout                 Fund. Cavity Tune Timer CH2 k           
260  C24_CAVTUNE_1RF_STET:CH1_ENB                                           bo                      Fund. Cavity Tune Timer CH1 Enable      
261  C24_CAVTUNE_1RF_STET:CH2_ENB                                           bo                      Fund. Cavity Tune Timer CH2 Enable      
262  C24_CAVTUNE_1RF_STET:CH1_SST                                           bo                      Fund. Cavity Tune Timer CH1 Single-Shot 
263  C24_CAVTUNE_1RF_STET:CH2_SST                                           bo                      Fund. Cavity Tune Timer CH2 Single-Shot 
264  C24_CAVTUNE_1RF_STET:CH1_MMS                                           longout                 Fund. Cavity Tune Timer CH1 m*MS        
265  C24_CAVTUNE_1RF_STET:CH2_MMS                                           longout                 Fund. Cavity Tune Timer CH2 m*MS        
266  C24_CAVTUNE_1RF_STET:CH1_STA                                           longout                 Fund. Cavity Tune Timer CH1 Status.     
267  C24_CAVTUNE_1RF_STET:CH2_STA                                           longout                 Fund. Cavity Tune Timer CH2 Status.     
268  CPS_READER:STATUS_1                                                    bi          1 second    Tell-tale channel for reader activity   
269  SYSTEM:INFO_1                                                          bo                      CPS System channel                      
270  TYPES_1:INIT                                                           longout                 Initialise Type-S card                  
271  TYPES_1:INIT:HPARAM1                                                   longout                                                         
272  TYPES_2:INIT                                                           longout                 Initialise Type-S card                  
273  TYPES_2:INIT:HPARAM1                                                   longout                                                         
274  TYPEG_1:INIT                                                           longout                 Type G init channel                     
275  TYPEG_2:INIT                                                           longout                 Type G init channel                     
276  TYPEG_3:INIT                                                           longout                 Type G init channel                     
277  TYPEG_4:INIT                                                           longout                 Type G init channel                     
278  RUN:STATUS                                                             bo                      Development channel                     
279  LIQRES:PIP                                                             stringout               Liquid Resistor PIP channel             
280  LIQRES_LOG:PIP                                                         stringout               Liquid Resistor Log PIP channel         
281  LIQRES:MSG                                                             stringout               Liquid Resistor message channel         
282  LIQRES:MUX                                                             stringout               Liquid Resistor CuSO4 multiplexor item  
283  LIQRES_SOLENOID_VALVE:OPW                                              bo                      Solenoid Valve WRITE OPEN/CLOSE         
284  LIQRES_SOLENOID_VALVE:OPW:HPARAM1                                      longout                                                         
285  LIQRES_SWITCH:1RF_2RF                                                  bo                      Dummy resistor switch 1RF/2RF           
286  LIQRES_SWITCH:1RF_2RF:HPARAM1                                          longout                                                         
287  LIQRES_BRIDGE:DAT                                                      waveform    1 second    RF Liquid Resistor Bridge function.     
288  CTYPEF:EXPT:DAT                                                        waveform    1 second    Data download to experimental function  
289  CTYPEF:REGISTER_WRITE                                                  longout                 One write channel to set-up RAM operating channel
290  CTYPEF:REGISTER_READ                                                   longin      1 second    Register status read back, RAM swapping register
291  RFCAV2:DS_TEMP                                                         ai          1 second    RF Cavity 2 downstream temperature.     
292  RFCAV3:DS_TEMP                                                         ai          1 second    RF Cavity 3 downstream temperature.     
293  RFCAV4:DS_TEMP                                                         ai          1 second    RF Cavity 4 downstream temperature.     
294  RFCAV7:DS_TEMP                                                         ai          1 second    RF Cavity 7 downstream temperature.     
295  RFCAV8:DS_TEMP                                                         ai          1 second    RF Cavity 8 downstream temperature.     
296  RFCAV9:DS_TEMP                                                         ai          1 second    RF Cavity 9 downstream temperature.     
297  RFCAV2:US_TEMP                                                         ai          1 second    RF Cavity 2 upstream temperature.       
298  RFCAV3:US_TEMP                                                         ai          1 second    RF Cavity 3 upstream temperature.       
299  RFCAV4:US_TEMP                                                         ai          1 second    RF Cavity 4 upstream temperature.       
300  RFCAV7:US_TEMP                                                         ai          1 second    RF Cavity 7 upstream temperature.       
301  RFCAV8:US_TEMP                                                         ai          1 second    RF Cavity 8 upstream temperature.       
302  RFCAV9:US_TEMP                                                         ai          1 second    RF Cavity 9 upstream temperature.       
303  LIQRES:DUMMY_RES                                                       ai          1 second    Dummy resistor.                         
304  LIQRES:DUMMY_RES_1RF                                                   ao                      1RF Dummy resistor value from G mod.    
305  LIQRES:DUMMY_RES_2RF                                                   ao                      2RF Dummy resistor value from G mod.    
306  RGMOD_3:CH6_VLT                                                        ai          1 second    Spare.                                  
307  LIQRES:CONDUCTIVITY                                                    ai          1 second    Conductivity.                           
308  LIQRES:TANK_LEVEL                                                      ai          1 second    Tank level of liquid resistor           
309  FREQ_READ:TIME_MS                                                      ao                      Freq read time in milliseconds          
310  FREQ_READ:IP_TIME                                                      ao                      User input freq read time (ms)          
311  FREQ_READ:FLAG                                                         longout                 Freq read time operation flag           
312  FREQ_READ:PIP                                                          stringout               Freq read time PIP channel              
313  FREQ_READ_MSG:TXT                                                      stringout               Freq read time message channel          
314  CPS_READER:STATUS_2                                                    bi          1 second    Tell-tale channel for reader activity   
315  SYSTEM:INFO_2                                                          bo                      R1RF-CPS-2                              
316  RFMOD_39:DAT                                                           waveform    1 second    Radial Loop Attenuation F-module.       
317  RFMOD_40:DAT                                                           waveform    1 second    Bunch Length Loop Subtrahend F-module.  
318  RFMOD_41:DAT                                                           waveform    1 second    Bunch Length Loop Attenuation F-module. 
319  RFMOD_42:DAT                                                           waveform    1 second    Phase Loop Gain Control F-module.       
320  CTYPEF:REGISTER_WRITE_1                                                longout                 One write channel to set-up RAM operating channel
321  CTYPEF:REGISTER_READ_1                                                 longin      1 second    Register status read back, RAM swapping register
322  CTYPEF:REGISTER_WRITE_2                                                longout                 One write channel to set-up RAM operating channel
323  CTYPEF:REGISTER_READ_2                                                 longin      1 second    Register status read back, RAM swapping register
324  CTYPEF:REGISTER_WRITE_3                                                longout                 One write channel to set-up RAM operating channel
325  CTYPEF:REGISTER_READ_3                                                 longin      1 second    Register status read back, RAM swapping register
326  CTYPEF:REGISTER_WRITE_4                                                longout                 One write channel to set-up RAM operating channel
327  CTYPEF:REGISTER_READ_4                                                 longin      1 second    Register status read back, RAM swapping register
328  TIMER_53:CH1_DELP                                                      longout                 T-Channel 1 Delta P                     
329  TIMER_53:CH1_MS_K                                                      longout                 T-Channel 1 MS/k                        
330  TIMER_53:CH1_ENB                                                       bo                      T-Channel 1 enable                      
331  TIMER_53:CH1_MMS                                                       longout                 T-Channel 1 MMS                         
332  TIMER_53:CH1_STA                                                       longin      1 second    T-Channel 1 Status                      
333  TIMER_53:CH2_DELP                                                      longout                 T-Channel 2 Delta P                     
334  TIMER_53:CH2_MS_K                                                      longout                 T-Channel 2 MS/k                        
335  TIMER_53:CH2_ENB                                                       bo                      T-Channel 2 enable                      
336  TIMER_53:CH2_MMS                                                       longout                 T-Channel 2 MMS                         
337  TIMER_53:CH2_STA                                                       longin      1 second    T-Channel 2 Status                      
338  TIMER_53:CH3_DELP                                                      longout                 T-Channel 3 Delta P                     
339  TIMER_53:CH3_MS_K                                                      longout                 T-Channel 3 MS/k                        
340  TIMER_53:CH3_ENB                                                       bo                      T-Channel 3 enable                      
341  TIMER_53:CH3_MMS                                                       longout                 T-Channel 3 MMS                         
342  TIMER_53:CH3_STA                                                       longin      1 second    T-Channel 3 Status                      
343  TIMER_53:CH4_DELP                                                      longout                 T-Channel 4 Delta P                     
344  TIMER_53:CH4_MS_K                                                      longout                 T-Channel 4 MS/k                        
345  TIMER_53:CH4_ENB                                                       bo                      T-Channel 4 enable                      
346  TIMER_53:CH4_MMS                                                       longout                 T-Channel 4 MMS                         
347  TIMER_53:CH4_STA                                                       longin      1 second    T-Channel 4 Status                      
348  READER:MPX_STATUS                                                      bi          1 second                                            